RISCV_TMR/output/dumpfile.vcd
$date
	Sat May 06 03:41:31 2023
$end
$version
	Icarus Verilog
$end
$timescale
	1s
$end
$scope module Top_module_tb $end
$var reg 1 ! clk $end
$var reg 1 " main_rst $end
$scope module Top_module $end
$var wire 1 ! clk $end
$var wire 1 " main_rst $end
$var wire 1 # rst_in $end
$var wire 1 $ core_hold $end
$var wire 3 % Voter_state [2:0] $end
$var wire 1 & Recovery_Data_MemWrite_sel $end
$var wire 32 ' ReadData_Recovery [31:0] $end
$var wire 32 ( ReadData_Data [31:0] $end
$var wire 32 ) ReadData [31:0] $end
$var wire 32 * RD_Instr [31:0] $end
$var wire 32 + RD2_Top_C [31:0] $end
$var wire 32 , RD2_Top_B [31:0] $end
$var wire 32 - RD2_Top_A [31:0] $end
$var wire 32 . RD2_Top [31:0] $end
$var wire 32 / PC_voter_output [31:0] $end
$var wire 32 0 PC_Top_C [31:0] $end
$var wire 32 1 PC_Top_B [31:0] $end
$var wire 32 2 PC_Top_A [31:0] $end
$var wire 32 3 PC_Top [31:0] $end
$var wire 1 4 MemWrite_recovery $end
$var wire 1 5 MemWrite_data $end
$var wire 1 6 MemWrite_C $end
$var wire 1 7 MemWrite_B $end
$var wire 1 8 MemWrite_A $end
$var wire 1 9 MemWrite $end
$var wire 1 : Data_Recovery_sel $end
$var wire 32 ; ALUResult_C [31:0] $end
$var wire 32 < ALUResult_B [31:0] $end
$var wire 32 = ALUResult_A [31:0] $end
$var wire 32 > ALUResult [31:0] $end
$scope module Data_Memory $end
$var wire 1 ! clk $end
$var wire 1 # rst_in $end
$var wire 1 9 WE $end
$var wire 32 ? WD [31:0] $end
$var wire 32 @ RD [31:0] $end
$var wire 32 A A [31:0] $end
$upscope $end
$scope module Demux_Recovery_Data_Memwrite $end
$var wire 1 & s $end
$var wire 1 9 c $end
$var wire 1 4 b $end
$var wire 1 5 a $end
$upscope $end
$scope module Instruction_Memory $end
$var wire 1 # rst_in $end
$var wire 32 B RD [31:0] $end
$var wire 32 C A [31:0] $end
$upscope $end
$scope module Main_core_A $end
$var wire 32 D RD_Instr [31:0] $end
$var wire 1 ! clk $end
$var wire 1 # rst_in $end
$var wire 1 E Zero $end
$var wire 32 F SrcB [31:0] $end
$var wire 1 G ResultSrc $end
$var wire 32 H Result [31:0] $end
$var wire 1 I RegWrite $end
$var wire 32 J ReadData [31:0] $end
$var wire 32 K RD2_Top [31:0] $end
$var wire 32 L RD1_Top [31:0] $end
$var wire 32 M PC_Top [31:0] $end
$var wire 32 N PCPlus4 [31:0] $end
$var wire 1 O OverFlow $end
$var wire 1 P Negative $end
$var wire 1 8 MemWrite $end
$var wire 32 Q Imm_Ext_Top [31:0] $end
$var wire 2 R ImmSrc [1:0] $end
$var wire 1 S Carry $end
$var wire 1 T ALUSrc $end
$var wire 32 U ALUResult [31:0] $end
$var wire 3 V ALUControl_Top [2:0] $end
$scope module ALU $end
$var wire 1 S Carry $end
$var wire 1 O OverFlow $end
$var wire 1 E Zero $end
$var wire 33 W Sum [32:0] $end
$var wire 32 X Result [31:0] $end
$var wire 1 P Negative $end
$var wire 1 Y Cout $end
$var wire 32 Z B [31:0] $end
$var wire 3 [ ALUControl [2:0] $end
$var wire 32 \ A [31:0] $end
$upscope $end
$scope module Control_Unit_Top $end
$var wire 7 ] Op [6:0] $end
$var wire 3 ^ funct3 [2:0] $end
$var wire 7 _ funct7 [6:0] $end
$var wire 1 G ResultSrc $end
$var wire 1 I RegWrite $end
$var wire 1 8 MemWrite $end
$var wire 2 ` ImmSrc [1:0] $end
$var wire 1 a Branch $end
$var wire 1 T ALUSrc $end
$var wire 2 b ALUOp [1:0] $end
$var wire 3 c ALUControl [2:0] $end
$scope module ALU_Decoder $end
$var wire 3 d funct3 [2:0] $end
$var wire 7 e funct7 [6:0] $end
$var wire 7 f op [6:0] $end
$var wire 2 g ALUOp [1:0] $end
$var wire 3 h ALUControl [2:0] $end
$upscope $end
$scope module Main_Decoder $end
$var wire 7 i Op [6:0] $end
$var wire 1 G ResultSrc $end
$var wire 1 I RegWrite $end
$var wire 1 8 MemWrite $end
$var wire 2 j ImmSrc [1:0] $end
$var wire 1 a Branch $end
$var wire 1 T ALUSrc $end
$var wire 2 k ALUOp [1:0] $end
$upscope $end
$upscope $end
$scope module Mux_DataMemory_to_Register $end
$var wire 32 l a [31:0] $end
$var wire 1 G s $end
$var wire 32 m c [31:0] $end
$var wire 32 n b [31:0] $end
$upscope $end
$scope module Mux_Register_to_ALU $end
$var wire 1 T s $end
$var wire 32 o c [31:0] $end
$var wire 32 p b [31:0] $end
$var wire 32 q a [31:0] $end
$upscope $end
$scope module PC $end
$var wire 1 ! clk $end
$var wire 1 # rst_in $end
$var wire 32 r PC_Next [31:0] $end
$var reg 32 s PC [31:0] $end
$upscope $end
$scope module PC_Adder $end
$var wire 32 t a [31:0] $end
$var wire 32 u b [31:0] $end
$var wire 32 v c [31:0] $end
$upscope $end
$scope module Register_File $end
$var wire 5 w A1 [4:0] $end
$var wire 5 x A2 [4:0] $end
$var wire 5 y A3 [4:0] $end
$var wire 32 z WD3 [31:0] $end
$var wire 1 I WE3 $end
$var wire 1 ! clk $end
$var wire 1 # rst_in $end
$var wire 32 { RD2 [31:0] $end
$var wire 32 | RD1 [31:0] $end
$var integer 32 } i [31:0] $end
$upscope $end
$scope module Sign_Extend $end
$var wire 1 ~ ImmSrc $end
$var wire 32 !" In [31:0] $end
$var wire 32 "" Imm_Ext [31:0] $end
$upscope $end
$upscope $end
$scope module Main_core_B $end
$var wire 32 #" RD_Instr [31:0] $end
$var wire 1 ! clk $end
$var wire 1 # rst_in $end
$var wire 1 $" Zero $end
$var wire 32 %" SrcB [31:0] $end
$var wire 1 &" ResultSrc $end
$var wire 32 '" Result [31:0] $end
$var wire 1 (" RegWrite $end
$var wire 32 )" ReadData [31:0] $end
$var wire 32 *" RD2_Top [31:0] $end
$var wire 32 +" RD1_Top [31:0] $end
$var wire 32 ," PC_Top [31:0] $end
$var wire 32 -" PCPlus4 [31:0] $end
$var wire 1 ." OverFlow $end
$var wire 1 /" Negative $end
$var wire 1 7 MemWrite $end
$var wire 32 0" Imm_Ext_Top [31:0] $end
$var wire 2 1" ImmSrc [1:0] $end
$var wire 1 2" Carry $end
$var wire 1 3" ALUSrc $end
$var wire 32 4" ALUResult [31:0] $end
$var wire 3 5" ALUControl_Top [2:0] $end
$scope module ALU $end
$var wire 1 2" Carry $end
$var wire 1 ." OverFlow $end
$var wire 1 $" Zero $end
$var wire 33 6" Sum [32:0] $end
$var wire 32 7" Result [31:0] $end
$var wire 1 /" Negative $end
$var wire 1 8" Cout $end
$var wire 32 9" B [31:0] $end
$var wire 3 :" ALUControl [2:0] $end
$var wire 32 ;" A [31:0] $end
$upscope $end
$scope module Control_Unit_Top $end
$var wire 7 <" Op [6:0] $end
$var wire 3 =" funct3 [2:0] $end
$var wire 7 >" funct7 [6:0] $end
$var wire 1 &" ResultSrc $end
$var wire 1 (" RegWrite $end
$var wire 1 7 MemWrite $end
$var wire 2 ?" ImmSrc [1:0] $end
$var wire 1 @" Branch $end
$var wire 1 3" ALUSrc $end
$var wire 2 A" ALUOp [1:0] $end
$var wire 3 B" ALUControl [2:0] $end
$scope module ALU_Decoder $end
$var wire 3 C" funct3 [2:0] $end
$var wire 7 D" funct7 [6:0] $end
$var wire 7 E" op [6:0] $end
$var wire 2 F" ALUOp [1:0] $end
$var wire 3 G" ALUControl [2:0] $end
$upscope $end
$scope module Main_Decoder $end
$var wire 7 H" Op [6:0] $end
$var wire 1 &" ResultSrc $end
$var wire 1 (" RegWrite $end
$var wire 1 7 MemWrite $end
$var wire 2 I" ImmSrc [1:0] $end
$var wire 1 @" Branch $end
$var wire 1 3" ALUSrc $end
$var wire 2 J" ALUOp [1:0] $end
$upscope $end
$upscope $end
$scope module Mux_DataMemory_to_Register $end
$var wire 32 K" a [31:0] $end
$var wire 1 &" s $end
$var wire 32 L" c [31:0] $end
$var wire 32 M" b [31:0] $end
$upscope $end
$scope module Mux_Register_to_ALU $end
$var wire 1 3" s $end
$var wire 32 N" c [31:0] $end
$var wire 32 O" b [31:0] $end
$var wire 32 P" a [31:0] $end
$upscope $end
$scope module PC $end
$var wire 1 ! clk $end
$var wire 1 # rst_in $end
$var wire 32 Q" PC_Next [31:0] $end
$var reg 32 R" PC [31:0] $end
$upscope $end
$scope module PC_Adder $end
$var wire 32 S" a [31:0] $end
$var wire 32 T" b [31:0] $end
$var wire 32 U" c [31:0] $end
$upscope $end
$scope module Register_File $end
$var wire 5 V" A1 [4:0] $end
$var wire 5 W" A2 [4:0] $end
$var wire 5 X" A3 [4:0] $end
$var wire 32 Y" WD3 [31:0] $end
$var wire 1 (" WE3 $end
$var wire 1 ! clk $end
$var wire 1 # rst_in $end
$var wire 32 Z" RD2 [31:0] $end
$var wire 32 [" RD1 [31:0] $end
$var integer 32 \" i [31:0] $end
$upscope $end
$scope module Sign_Extend $end
$var wire 1 ]" ImmSrc $end
$var wire 32 ^" In [31:0] $end
$var wire 32 _" Imm_Ext [31:0] $end
$upscope $end
$upscope $end
$scope module Main_core_C $end
$var wire 32 `" RD_Instr [31:0] $end
$var wire 1 ! clk $end
$var wire 1 # rst_in $end
$var wire 1 a" Zero $end
$var wire 32 b" SrcB [31:0] $end
$var wire 1 c" ResultSrc $end
$var wire 32 d" Result [31:0] $end
$var wire 1 e" RegWrite $end
$var wire 32 f" ReadData [31:0] $end
$var wire 32 g" RD2_Top [31:0] $end
$var wire 32 h" RD1_Top [31:0] $end
$var wire 32 i" PC_Top [31:0] $end
$var wire 32 j" PCPlus4 [31:0] $end
$var wire 1 k" OverFlow $end
$var wire 1 l" Negative $end
$var wire 1 6 MemWrite $end
$var wire 32 m" Imm_Ext_Top [31:0] $end
$var wire 2 n" ImmSrc [1:0] $end
$var wire 1 o" Carry $end
$var wire 1 p" ALUSrc $end
$var wire 32 q" ALUResult [31:0] $end
$var wire 3 r" ALUControl_Top [2:0] $end
$scope module ALU $end
$var wire 1 o" Carry $end
$var wire 1 k" OverFlow $end
$var wire 1 a" Zero $end
$var wire 33 s" Sum [32:0] $end
$var wire 32 t" Result [31:0] $end
$var wire 1 l" Negative $end
$var wire 1 u" Cout $end
$var wire 32 v" B [31:0] $end
$var wire 3 w" ALUControl [2:0] $end
$var wire 32 x" A [31:0] $end
$upscope $end
$scope module Control_Unit_Top $end
$var wire 7 y" Op [6:0] $end
$var wire 3 z" funct3 [2:0] $end
$var wire 7 {" funct7 [6:0] $end
$var wire 1 c" ResultSrc $end
$var wire 1 e" RegWrite $end
$var wire 1 6 MemWrite $end
$var wire 2 |" ImmSrc [1:0] $end
$var wire 1 }" Branch $end
$var wire 1 p" ALUSrc $end
$var wire 2 ~" ALUOp [1:0] $end
$var wire 3 !# ALUControl [2:0] $end
$scope module ALU_Decoder $end
$var wire 3 "# funct3 [2:0] $end
$var wire 7 ## funct7 [6:0] $end
$var wire 7 $# op [6:0] $end
$var wire 2 %# ALUOp [1:0] $end
$var wire 3 &# ALUControl [2:0] $end
$upscope $end
$scope module Main_Decoder $end
$var wire 7 '# Op [6:0] $end
$var wire 1 c" ResultSrc $end
$var wire 1 e" RegWrite $end
$var wire 1 6 MemWrite $end
$var wire 2 (# ImmSrc [1:0] $end
$var wire 1 }" Branch $end
$var wire 1 p" ALUSrc $end
$var wire 2 )# ALUOp [1:0] $end
$upscope $end
$upscope $end
$scope module Mux_DataMemory_to_Register $end
$var wire 32 *# a [31:0] $end
$var wire 1 c" s $end
$var wire 32 +# c [31:0] $end
$var wire 32 ,# b [31:0] $end
$upscope $end
$scope module Mux_Register_to_ALU $end
$var wire 1 p" s $end
$var wire 32 -# c [31:0] $end
$var wire 32 .# b [31:0] $end
$var wire 32 /# a [31:0] $end
$upscope $end
$scope module PC $end
$var wire 1 ! clk $end
$var wire 1 # rst_in $end
$var wire 32 0# PC_Next [31:0] $end
$var reg 32 1# PC [31:0] $end
$upscope $end
$scope module PC_Adder $end
$var wire 32 2# a [31:0] $end
$var wire 32 3# b [31:0] $end
$var wire 32 4# c [31:0] $end
$upscope $end
$scope module Register_File $end
$var wire 5 5# A1 [4:0] $end
$var wire 5 6# A2 [4:0] $end
$var wire 5 7# A3 [4:0] $end
$var wire 32 8# WD3 [31:0] $end
$var wire 1 e" WE3 $end
$var wire 1 ! clk $end
$var wire 1 # rst_in $end
$var wire 32 9# RD2 [31:0] $end
$var wire 32 :# RD1 [31:0] $end
$var integer 32 ;# i [31:0] $end
$upscope $end
$scope module Sign_Extend $end
$var wire 1 <# ImmSrc $end
$var wire 32 =# In [31:0] $end
$var wire 32 ># Imm_Ext [31:0] $end
$upscope $end
$upscope $end
$scope module Mux_Data_Recovery $end
$var wire 32 ?# a [31:0] $end
$var wire 1 : s $end
$var wire 32 @# c [31:0] $end
$var wire 32 A# b [31:0] $end
$upscope $end
$scope module PC_Controller $end
$var wire 32 B# PC_Top_rollback [31:0] $end
$var wire 1 ! clk $end
$var wire 3 C# Voter_state [2:0] $end
$var wire 32 D# Rollback_instr [31:0] $end
$var wire 1 & Recovery_Data_MemWrite_sel $end
$var wire 32 E# PC_voter_output [31:0] $end
$var wire 32 F# PC_Top [31:0] $end
$var wire 1 : Data_Recovery_sel $end
$scope module PC_buffer $end
$var wire 32 G# PC_Top_rollback [31:0] $end
$var wire 1 ! clk $end
$var wire 32 H# PC_Top [31:0] $end
$upscope $end
$upscope $end
$scope module Recovery_Register $end
$var wire 1 4 WE $end
$var wire 1 ! clk $end
$var wire 1 # rst_in $end
$var wire 32 I# WD [31:0] $end
$var wire 32 J# RD [31:0] $end
$var wire 32 K# A [31:0] $end
$var integer 32 L# i [31:0] $end
$upscope $end
$scope module Rst_Controller $end
$var wire 1 " main_rst $end
$var wire 1 # rst_in $end
$var wire 1 $ core_hold $end
$upscope $end
$scope module Voter $end
$var wire 32 M# ALUResult_A [31:0] $end
$var wire 32 N# ALUResult_B [31:0] $end
$var wire 32 O# ALUResult_C [31:0] $end
$var wire 1 8 MemWrite_A $end
$var wire 1 7 MemWrite_B $end
$var wire 1 6 MemWrite_C $end
$var wire 32 P# PC_Top_A [31:0] $end
$var wire 32 Q# PC_Top_B [31:0] $end
$var wire 32 R# PC_Top_C [31:0] $end
$var wire 32 S# RD2_Top_A [31:0] $end
$var wire 32 T# RD2_Top_B [31:0] $end
$var wire 32 U# RD2_Top_C [31:0] $end
$var wire 3 V# Voter_state [2:0] $end
$var wire 1 ! clk $end
$var wire 1 # rst_in $end
$var wire 1 $ core_hold $end
$var wire 32 W# RD2_Top [31:0] $end
$var wire 32 X# PC_Top [31:0] $end
$var wire 1 9 MemWrite $end
$var wire 3 Y# Comp_table_RD2 [2:0] $end
$var wire 3 Z# Comp_table_PC [2:0] $end
$var wire 3 [# Comp_table_Mem [2:0] $end
$var wire 3 \# Comp_table_ALU [2:0] $end
$var wire 32 ]# ALUResult [31:0] $end
$upscope $end
$upscope $end
$upscope $end
$enddefinitions $end
$comment Show the parameter values. $end
$dumpall
$end
#0
$dumpvars
b0 ]#
b111 \#
b111 [#
bx Z#
b111 Y#
bx X#
b0 W#
bx V#
b0 U#
b0 T#
b0 S#
bx R#
bx Q#
bx P#
b0 O#
b0 N#
b0 M#
b100000 L#
b0 K#
b0 J#
b0 I#
bx H#
b0 G#
bx F#
bx E#
b10000000000011 D#
bx C#
b0 B#
b0 A#
b0 @#
b0 ?#
b0 >#
b0 =#
0<#
b100000 ;#
b0 :#
b0 9#
b0 8#
b0 7#
b0 6#
b0 5#
bx 4#
b100 3#
bx 2#
bx 1#
bx 0#
b0 /#
b0 .#
b0 -#
b0 ,#
b0 +#
b0 *#
b0 )#
b0 (#
b0 '#
b0 &#
b0 %#
b0 $#
b0 ##
b0 "#
b0 !#
b0 ~"
0}"
b0 |"
b0 {"
b0 z"
b0 y"
b0 x"
b0 w"
b0 v"
0u"
b0 t"
b0 s"
b0 r"
b0 q"
0p"
0o"
b0 n"
b0 m"
0l"
0k"
bx j"
bx i"
b0 h"
b0 g"
b0 f"
0e"
b0 d"
0c"
b0 b"
1a"
b0 `"
b0 _"
b0 ^"
0]"
b100000 \"
b0 ["
b0 Z"
b0 Y"
b0 X"
b0 W"
b0 V"
bx U"
b100 T"
bx S"
bx R"
bx Q"
b0 P"
b0 O"
b0 N"
b0 M"
b0 L"
b0 K"
b0 J"
b0 I"
b0 H"
b0 G"
b0 F"
b0 E"
b0 D"
b0 C"
b0 B"
b0 A"
0@"
b0 ?"
b0 >"
b0 ="
b0 <"
b0 ;"
b0 :"
b0 9"
08"
b0 7"
b0 6"
b0 5"
b0 4"
03"
02"
b0 1"
b0 0"
0/"
0."
bx -"
bx ,"
b0 +"
b0 *"
b0 )"
0("
b0 '"
0&"
b0 %"
1$"
b0 #"
b0 ""
b0 !"
0~
b100000 }
b0 |
b0 {
b0 z
b0 y
b0 x
b0 w
bx v
b100 u
bx t
bx s
bx r
b0 q
b0 p
b0 o
b0 n
b0 m
b0 l
b0 k
b0 j
b0 i
b0 h
b0 g
b0 f
b0 e
b0 d
b0 c
b0 b
0a
b0 `
b0 _
b0 ^
b0 ]
b0 \
b0 [
b0 Z
0Y
b0 X
b0 W
b0 V
b0 U
0T
0S
b0 R
b0 Q
0P
0O
bx N
bx M
b0 L
b0 K
b0 J
0I
b0 H
0G
b0 F
1E
b0 D
bx C
b0 B
b0 A
b0 @
b0 ?
b0 >
b0 =
b0 <
b0 ;
x:
09
08
07
06
05
04
bx 3
bx 2
bx 1
bx 0
bx /
b0 .
b0 -
b0 ,
b0 +
b0 *
b0 )
b0 (
b0 '
x&
bx %
x$
0#
0"
0!
$end
#50
0$
0:
0&
b0 3
b0 C
b0 F#
b0 /
b0 E#
b0 H#
b0 X#
b111 %
b111 C#
b111 V#
b0xxxxx010xxxxx0000011 D#
bx B#
bx G#
b100 j"
b100 0#
b100 4#
b0 0
b0 i"
b0 1#
b0 2#
b0 R#
b100 -"
b100 Q"
b100 U"
b111 Z#
b0 1
b0 ,"
b0 R"
b0 S"
b0 Q#
b100 N
b100 r
b100 v
b0 2
b0 M
b0 s
b0 t
b0 P#
1!
#100
0!
#150
b11111111111111111111111111111111 H
b11111111111111111111111111111111 m
b11111111111111111111111111111111 z
b11111111111111111111111111111111 '"
b11111111111111111111111111111111 L"
b11111111111111111111111111111111 Y"
b11111111111111111111111111111111 d"
b11111111111111111111111111111111 +#
b11111111111111111111111111111111 8#
1I
1T
1("
13"
1e"
1p"
1G
1&"
1c"
b1 y
b11 ]
b11 f
b11 i
b10 ^
b10 d
b1 X"
b11 <"
b11 E"
b11 H"
b10 ="
b10 C"
b1 7#
b11 y"
b11 $#
b11 '#
b10 z"
b10 "#
b11111111111111111111111111111111 )
b11111111111111111111111111111111 J
b11111111111111111111111111111111 n
b11111111111111111111111111111111 )"
b11111111111111111111111111111111 M"
b11111111111111111111111111111111 f"
b11111111111111111111111111111111 ,#
b11111111111111111111111111111111 @#
b10000010000011 *
b10000010000011 B
b10000010000011 D
b10000010000011 !"
b10000010000011 #"
b10000010000011 ^"
b10000010000011 `"
b10000010000011 =#
b11111111111111111111111111111111 (
b11111111111111111111111111111111 @
b11111111111111111111111111111111 ?#
1#
1"
1!
#200
0!
#250
b1111 d"
b1111 +#
b1111 8#
b1111 '"
b1111 L"
b1111 Y"
b1111 H
b1111 m
b1111 z
b1111 )
b1111 J
b1111 n
b1111 )"
b1111 M"
b1111 f"
b1111 ,#
b1111 @#
b1111 (
b1111 @
b1111 ?#
b1 >
b1 A
b1 K#
b1 ]#
0E
0$"
0a"
b1 =
b1 U
b1 X
b1 l
b1 M#
b1 <
b1 4"
b1 7"
b1 K"
b1 N#
b111 \#
b1 ;
b1 q"
b1 t"
b1 *#
b1 O#
b1 W
b1 6"
b1 s"
b11111111111111111111111111111111 .
b11111111111111111111111111111111 ?
b11111111111111111111111111111111 I#
b11111111111111111111111111111111 W#
b1 F
b1 Z
b1 o
b1 %"
b1 9"
b1 N"
b1 b"
b1 v"
b1 -#
b11111111111111111111111111111111 -
b11111111111111111111111111111111 K
b11111111111111111111111111111111 q
b11111111111111111111111111111111 {
b11111111111111111111111111111111 S#
b1 Q
b1 p
b1 ""
b11111111111111111111111111111111 ,
b11111111111111111111111111111111 *"
b11111111111111111111111111111111 P"
b11111111111111111111111111111111 Z"
b11111111111111111111111111111111 T#
b1 0"
b1 O"
b1 _"
b111 Y#
b11111111111111111111111111111111 +
b11111111111111111111111111111111 g"
b11111111111111111111111111111111 /#
b11111111111111111111111111111111 9#
b11111111111111111111111111111111 U#
b1 m"
b1 .#
b1 >#
b1 x
b10 y
b1 W"
b10 X"
b1 6#
b10 7#
b100000010000100000011 *
b100000010000100000011 B
b100000010000100000011 D
b100000010000100000011 !"
b100000010000100000011 #"
b100000010000100000011 ^"
b100000010000100000011 `"
b100000010000100000011 =#
b100 3
b100 C
b100 F#
b10000000000011 D#
b100 /
b100 E#
b100 H#
b100 X#
b0 B#
b0 G#
b1000 j"
b1000 0#
b1000 4#
b100 0
b100 i"
b100 1#
b100 2#
b100 R#
b1000 -"
b1000 Q"
b1000 U"
b100 1
b100 ,"
b100 R"
b100 S"
b100 Q#
b1000 N
b1000 r
b1000 v
b111 Z#
b100 2
b100 M
b100 s
b100 t
b100 P#
1!
#300
0!
#350
b0 )
b0 J
b0 n
b0 )"
b0 M"
b0 f"
b0 ,#
b0 @#
b0 (
b0 @
b0 ?#
b1110 >
b1110 A
b1110 K#
b1110 ]#
b1110 =
b1110 U
b1110 X
b1110 l
b1110 M#
b1110 <
b1110 4"
b1110 7"
b1110 K"
b1110 N#
b111 \#
b1110 ;
b1110 q"
b1110 t"
b1110 *#
b1110 O#
0O
1S
0."
12"
0k"
1o"
1Y
18"
1u"
b1110 H
b1110 m
b1110 z
b1110 '"
b1110 L"
b1110 Y"
b1110 d"
b1110 +#
b1110 8#
b100000000000000000000000000001110 W
b1111 .
b1111 ?
b1111 I#
b1111 W#
0T
b1111 F
b1111 Z
b1111 o
b100000000000000000000000000001110 6"
03"
b1111 %"
b1111 9"
b1111 N"
b100000000000000000000000000001110 s"
0p"
b1111 b"
b1111 v"
b1111 -#
b11111111111111111111111111111111 L
b11111111111111111111111111111111 \
b11111111111111111111111111111111 |
b1111 -
b1111 K
b1111 q
b1111 {
b1111 S#
0G
b10 b
b10 g
b10 k
b10 Q
b10 p
b10 ""
b11111111111111111111111111111111 +"
b11111111111111111111111111111111 ;"
b11111111111111111111111111111111 ["
b1111 ,
b1111 *"
b1111 P"
b1111 Z"
b1111 T#
0&"
b10 A"
b10 F"
b10 J"
b10 0"
b10 O"
b10 _"
b11111111111111111111111111111111 h"
b11111111111111111111111111111111 x"
b11111111111111111111111111111111 :#
b111 Y#
b1111 +
b1111 g"
b1111 /#
b1111 9#
b1111 U#
0c"
b10 ~"
b10 %#
b10 )#
b10 m"
b10 .#
b10 >#
b1 w
b10 x
b11 y
b110011 ]
b110011 f
b110011 i
b0 ^
b0 d
b1 V"
b10 W"
b11 X"
b110011 <"
b110011 E"
b110011 H"
b0 ="
b0 C"
b1 5#
b10 6#
b11 7#
b110011 y"
b110011 $#
b110011 '#
b0 z"
b0 "#
b1000001000000110110011 *
b1000001000000110110011 B
b1000001000000110110011 D
b1000001000000110110011 !"
b1000001000000110110011 #"
b1000001000000110110011 ^"
b1000001000000110110011 `"
b1000001000000110110011 =#
b1000 3
b1000 C
b1000 F#
b1000 /
b1000 E#
b1000 H#
b1000 X#
b1100 N
b1100 r
b1100 v
b1000 2
b1000 M
b1000 s
b1000 t
b1000 P#
b1100 -"
b1100 Q"
b1100 U"
b1000 1
b1000 ,"
b1000 R"
b1000 S"
b1000 Q#
b1100 j"
b1100 0#
b1100 4#
b111 Z#
b1000 0
b1000 i"
b1000 1#
b1000 2#
b1000 R#
1!
#400
0!
#450
b10101011110011011110111110101011 )
b10101011110011011110111110101011 J
b10101011110011011110111110101011 n
b10101011110011011110111110101011 )"
b10101011110011011110111110101011 M"
b10101011110011011110111110101011 f"
b10101011110011011110111110101011 ,#
b10101011110011011110111110101011 @#
b10101011110011011110111110101011 (
b10101011110011011110111110101011 @
b10101011110011011110111110101011 ?#
b10 H
b10 m
b10 z
b10 >
b10 A
b10 K#
b10 ]#
b10 '"
b10 L"
b10 Y"
b10 d"
b10 +#
b10 8#
b10 =
b10 U
b10 X
b10 l
b10 M#
b10 <
b10 4"
b10 7"
b10 K"
b10 N#
b111 \#
b10 ;
b10 q"
b10 t"
b10 *#
b10 O#
0S
02"
0o"
0Y
08"
0u"
15
b10 W
b1110 .
b1110 ?
b1110 I#
b1110 W#
b10 F
b10 Z
b10 o
0I
1~
1T
19
b10 6"
b10 %"
b10 9"
b10 N"
0("
1]"
13"
b10 s"
b10 b"
b10 v"
b10 -#
0e"
1<#
1p"
b0 L
b0 \
b0 |
b1110 -
b1110 K
b1110 q
b1110 {
b1110 S#
b1 R
b1 `
b1 j
18
b0 b
b0 g
b0 k
b10 Q
b10 p
b10 ""
b0 +"
b0 ;"
b0 ["
b1110 ,
b1110 *"
b1110 P"
b1110 Z"
b1110 T#
b1 1"
b1 ?"
b1 I"
17
b0 A"
b0 F"
b0 J"
b10 0"
b10 O"
b10 _"
b0 h"
b0 x"
b0 :#
b111 Y#
b1110 +
b1110 g"
b1110 /#
b1110 9#
b1110 U#
b1 n"
b1 |"
b1 (#
16
b0 ~"
b0 %#
b0 )#
b10 m"
b10 .#
b10 >#
b0 w
b11 x
b10 y
b100011 ]
b100011 f
b100011 i
b10 ^
b10 d
b0 V"
b11 W"
b10 X"
b100011 <"
b100011 E"
b100011 H"
b10 ="
b10 C"
b0 5#
b11 6#
b10 7#
b100011 y"
b100011 $#
b100011 '#
b10 z"
b10 "#
b1100000010000100100011 *
b1100000010000100100011 B
b1100000010000100100011 D
b1100000010000100100011 !"
b1100000010000100100011 #"
b1100000010000100100011 ^"
b1100000010000100100011 `"
b1100000010000100100011 =#
b1100 3
b1100 C
b1100 F#
b1100 /
b1100 E#
b1100 H#
b1100 X#
b100 B#
b100 G#
b10000 j"
b10000 0#
b10000 4#
b1100 0
b1100 i"
b1100 1#
b1100 2#
b1100 R#
b10000 -"
b10000 Q"
b10000 U"
b1100 1
b1100 ,"
b1100 R"
b1100 S"
b1100 Q#
b10000 N
b10000 r
b10000 v
b111 Z#
b1100 2
b1100 M
b1100 s
b1100 t
b1100 P#
1!
#500
0!
#550
xO
xP
xE
xS
x."
x/"
x$"
x2"
xk"
xl"
xa"
xo"
bx '
bx A#
bx J#
x4
bx =
bx U
bx X
bx l
bx M#
xY
bx <
bx 4"
bx 7"
bx K"
bx N#
x8"
bx \#
bx ;
bx q"
bx t"
bx *#
bx O#
xu"
bx >
bx A
bx K#
bx ]#
x#
x5
bx H
bx m
bx z
bx V
bx [
bx c
bx h
bx '"
bx L"
bx Y"
bx 5"
bx :"
bx B"
bx G"
x$
x:
x&
bx d"
bx +#
bx 8#
bx r"
bx w"
bx !#
bx &#
bx W
bx .
bx ?
bx I#
bx W#
xI
x~
xT
x9
bx F
bx Z
bx o
bx 6"
x("
x]"
x3"
bx %"
bx 9"
bx N"
bx s"
bx %
bx C#
bx V#
xe"
x<#
xp"
bx [#
bx b"
bx v"
bx -#
bx L
bx \
bx |
bx -
bx K
bx q
bx {
bx S#
bx R
bx `
bx j
x8
xG
xa
bx b
bx g
bx k
bx Q
bx p
bx ""
bx +"
bx ;"
bx ["
bx ,
bx *"
bx P"
bx Z"
bx T#
bx 1"
bx ?"
bx I"
x7
x&"
x@"
bx A"
bx F"
bx J"
bx 0"
bx O"
bx _"
bx h"
bx x"
bx :#
bx Y#
bx +
bx g"
bx /#
bx 9#
bx U#
bx n"
bx |"
bx (#
x6
xc"
x}"
bx ~"
bx %#
bx )#
bx m"
bx .#
bx >#
bx w
bx x
bx y
bx ]
bx f
bx i
bx ^
bx d
bx _
bx e
bx V"
bx W"
bx X"
bx <"
bx E"
bx H"
bx ="
bx C"
bx >"
bx D"
bx 5#
bx 6#
bx 7#
bx y"
bx $#
bx '#
bx z"
bx "#
bx {"
bx ##
bx *
bx B
bx D
bx !"
bx #"
bx ^"
bx `"
bx =#
b0x00000000x00xx 3
b0x00000000x00xx C
b0x00000000x00xx F#
bx )
bx J
bx n
bx )"
bx M"
bx f"
bx ,#
bx @#
b0x0000 /
b0x0000 E#
b0x0000 H#
b0x0000 X#
bx (
bx @
bx ?#
b10100 N
b10100 r
b10100 v
b10000 2
b10000 M
b10000 s
b10000 t
b10000 P#
b10100 -"
b10100 Q"
b10100 U"
b10000 1
b10000 ,"
b10000 R"
b10000 S"
b10000 Q#
b10100 j"
b10100 0#
b10100 4#
b111 Z#
b10000 0
b10000 i"
b10000 1#
b10000 2#
b10000 R#
b1000 B#
b1000 G#
1!
#600
0!
#650
b0x00000000x0xxx 3
b0x00000000x0xxx C
b0x00000000x0xxx F#
b0x0x00 /
b0x0x00 E#
b0x0x00 H#
b0x0x00 X#
b1100 B#
b1100 G#
b11000 j"
b11000 0#
b11000 4#
b10100 0
b10100 i"
b10100 1#
b10100 2#
b10100 R#
b11000 -"
b11000 Q"
b11000 U"
b10100 1
b10100 ,"
b10100 R"
b10100 S"
b10100 Q#
b11000 N
b11000 r
b11000 v
b111 Z#
b10100 2
b10100 M
b10100 s
b10100 t
b10100 P#
1!
#700
0!
