RISCV_TMR/output/dumpfile.vcd
$date
	Fri May 05 00:15:01 2023
$end
$version
	Icarus Verilog
$end
$timescale
	1s
$end
$scope module Top_module_tb $end
$var reg 1 ! clk $end
$var reg 1 " main_rst $end
$scope module Top_module $end
$var wire 1 ! clk $end
$var wire 1 " main_rst $end
$var wire 1 # rst_in $end
$var wire 2 $ Voter_state [1:0] $end
$var wire 32 % ReadData [31:0] $end
$var wire 32 & RD_Instr [31:0] $end
$var wire 32 ' RD2_Top_C [31:0] $end
$var wire 32 ( RD2_Top_B [31:0] $end
$var wire 32 ) RD2_Top_A [31:0] $end
$var wire 32 * RD2_Top [31:0] $end
$var wire 32 + PC_Top_C [31:0] $end
$var wire 32 , PC_Top_B [31:0] $end
$var wire 32 - PC_Top_A [31:0] $end
$var wire 32 . PC_Top [31:0] $end
$var wire 1 / MemWrite_C $end
$var wire 1 0 MemWrite_B $end
$var wire 1 1 MemWrite_A $end
$var wire 1 2 MemWrite $end
$var wire 32 3 ALUResult_C [31:0] $end
$var wire 32 4 ALUResult_B [31:0] $end
$var wire 32 5 ALUResult_A [31:0] $end
$var wire 32 6 ALUResult [31:0] $end
$scope module Data_Memory $end
$var wire 1 ! clk $end
$var wire 1 # rst_in $end
$var wire 1 2 WE $end
$var wire 32 7 WD [31:0] $end
$var wire 32 8 RD [31:0] $end
$var wire 32 9 A [31:0] $end
$upscope $end
$scope module Instruction_Memory $end
$var wire 1 # rst_in $end
$var wire 32 : RD [31:0] $end
$var wire 32 ; A [31:0] $end
$upscope $end
$scope module Main_core_A $end
$var wire 32 < RD_Instr [31:0] $end
$var wire 32 = ReadData [31:0] $end
$var wire 1 ! clk $end
$var wire 1 # rst_in $end
$var wire 1 > Zero $end
$var wire 32 ? SrcB [31:0] $end
$var wire 1 @ ResultSrc $end
$var wire 32 A Result [31:0] $end
$var wire 1 B RegWrite $end
$var wire 32 C RD2_Top [31:0] $end
$var wire 32 D RD1_Top [31:0] $end
$var wire 32 E PC_Top [31:0] $end
$var wire 32 F PCPlus4 [31:0] $end
$var wire 1 G OverFlow $end
$var wire 1 H Negative $end
$var wire 1 1 MemWrite $end
$var wire 32 I Imm_Ext_Top [31:0] $end
$var wire 2 J ImmSrc [1:0] $end
$var wire 1 K Carry $end
$var wire 1 L ALUSrc $end
$var wire 32 M ALUResult [31:0] $end
$var wire 3 N ALUControl_Top [2:0] $end
$scope module ALU $end
$var wire 1 K Carry $end
$var wire 1 G OverFlow $end
$var wire 1 > Zero $end
$var wire 33 O Sum [32:0] $end
$var wire 32 P Result [31:0] $end
$var wire 1 H Negative $end
$var wire 1 Q Cout $end
$var wire 32 R B [31:0] $end
$var wire 3 S ALUControl [2:0] $end
$var wire 32 T A [31:0] $end
$upscope $end
$scope module Control_Unit_Top $end
$var wire 7 U Op [6:0] $end
$var wire 3 V funct3 [2:0] $end
$var wire 7 W funct7 [6:0] $end
$var wire 1 @ ResultSrc $end
$var wire 1 B RegWrite $end
$var wire 1 1 MemWrite $end
$var wire 2 X ImmSrc [1:0] $end
$var wire 1 Y Branch $end
$var wire 1 L ALUSrc $end
$var wire 2 Z ALUOp [1:0] $end
$var wire 3 [ ALUControl [2:0] $end
$scope module ALU_Decoder $end
$var wire 3 \ funct3 [2:0] $end
$var wire 7 ] funct7 [6:0] $end
$var wire 7 ^ op [6:0] $end
$var wire 2 _ ALUOp [1:0] $end
$var wire 3 ` ALUControl [2:0] $end
$upscope $end
$scope module Main_Decoder $end
$var wire 7 a Op [6:0] $end
$var wire 1 @ ResultSrc $end
$var wire 1 B RegWrite $end
$var wire 1 1 MemWrite $end
$var wire 2 b ImmSrc [1:0] $end
$var wire 1 Y Branch $end
$var wire 1 L ALUSrc $end
$var wire 2 c ALUOp [1:0] $end
$upscope $end
$upscope $end
$scope module Mux_DataMemory_to_Register $end
$var wire 32 d a [31:0] $end
$var wire 32 e b [31:0] $end
$var wire 1 @ s $end
$var wire 32 f c [31:0] $end
$upscope $end
$scope module Mux_Register_to_ALU $end
$var wire 1 L s $end
$var wire 32 g c [31:0] $end
$var wire 32 h b [31:0] $end
$var wire 32 i a [31:0] $end
$upscope $end
$scope module PC $end
$var wire 1 ! clk $end
$var wire 1 # rst_in $end
$var wire 32 j PC_Next [31:0] $end
$var reg 32 k PC [31:0] $end
$upscope $end
$scope module PC_Adder $end
$var wire 32 l a [31:0] $end
$var wire 32 m b [31:0] $end
$var wire 32 n c [31:0] $end
$upscope $end
$scope module Register_File $end
$var wire 5 o A1 [4:0] $end
$var wire 5 p A2 [4:0] $end
$var wire 5 q A3 [4:0] $end
$var wire 32 r WD3 [31:0] $end
$var wire 1 B WE3 $end
$var wire 1 ! clk $end
$var wire 1 # rst_in $end
$var wire 32 s RD2 [31:0] $end
$var wire 32 t RD1 [31:0] $end
$var integer 32 u i [31:0] $end
$upscope $end
$scope module Sign_Extend $end
$var wire 1 v ImmSrc $end
$var wire 32 w In [31:0] $end
$var wire 32 x Imm_Ext [31:0] $end
$upscope $end
$upscope $end
$scope module Main_core_B $end
$var wire 32 y RD_Instr [31:0] $end
$var wire 32 z ReadData [31:0] $end
$var wire 1 ! clk $end
$var wire 1 # rst_in $end
$var wire 1 { Zero $end
$var wire 32 | SrcB [31:0] $end
$var wire 1 } ResultSrc $end
$var wire 32 ~ Result [31:0] $end
$var wire 1 !" RegWrite $end
$var wire 32 "" RD2_Top [31:0] $end
$var wire 32 #" RD1_Top [31:0] $end
$var wire 32 $" PC_Top [31:0] $end
$var wire 32 %" PCPlus4 [31:0] $end
$var wire 1 &" OverFlow $end
$var wire 1 '" Negative $end
$var wire 1 0 MemWrite $end
$var wire 32 (" Imm_Ext_Top [31:0] $end
$var wire 2 )" ImmSrc [1:0] $end
$var wire 1 *" Carry $end
$var wire 1 +" ALUSrc $end
$var wire 32 ," ALUResult [31:0] $end
$var wire 3 -" ALUControl_Top [2:0] $end
$scope module ALU $end
$var wire 1 *" Carry $end
$var wire 1 &" OverFlow $end
$var wire 1 { Zero $end
$var wire 33 ." Sum [32:0] $end
$var wire 32 /" Result [31:0] $end
$var wire 1 '" Negative $end
$var wire 1 0" Cout $end
$var wire 32 1" B [31:0] $end
$var wire 3 2" ALUControl [2:0] $end
$var wire 32 3" A [31:0] $end
$upscope $end
$scope module Control_Unit_Top $end
$var wire 7 4" Op [6:0] $end
$var wire 3 5" funct3 [2:0] $end
$var wire 7 6" funct7 [6:0] $end
$var wire 1 } ResultSrc $end
$var wire 1 !" RegWrite $end
$var wire 1 0 MemWrite $end
$var wire 2 7" ImmSrc [1:0] $end
$var wire 1 8" Branch $end
$var wire 1 +" ALUSrc $end
$var wire 2 9" ALUOp [1:0] $end
$var wire 3 :" ALUControl [2:0] $end
$scope module ALU_Decoder $end
$var wire 3 ;" funct3 [2:0] $end
$var wire 7 <" funct7 [6:0] $end
$var wire 7 =" op [6:0] $end
$var wire 2 >" ALUOp [1:0] $end
$var wire 3 ?" ALUControl [2:0] $end
$upscope $end
$scope module Main_Decoder $end
$var wire 7 @" Op [6:0] $end
$var wire 1 } ResultSrc $end
$var wire 1 !" RegWrite $end
$var wire 1 0 MemWrite $end
$var wire 2 A" ImmSrc [1:0] $end
$var wire 1 8" Branch $end
$var wire 1 +" ALUSrc $end
$var wire 2 B" ALUOp [1:0] $end
$upscope $end
$upscope $end
$scope module Mux_DataMemory_to_Register $end
$var wire 32 C" a [31:0] $end
$var wire 32 D" b [31:0] $end
$var wire 1 } s $end
$var wire 32 E" c [31:0] $end
$upscope $end
$scope module Mux_Register_to_ALU $end
$var wire 1 +" s $end
$var wire 32 F" c [31:0] $end
$var wire 32 G" b [31:0] $end
$var wire 32 H" a [31:0] $end
$upscope $end
$scope module PC $end
$var wire 1 ! clk $end
$var wire 1 # rst_in $end
$var wire 32 I" PC_Next [31:0] $end
$var reg 32 J" PC [31:0] $end
$upscope $end
$scope module PC_Adder $end
$var wire 32 K" a [31:0] $end
$var wire 32 L" b [31:0] $end
$var wire 32 M" c [31:0] $end
$upscope $end
$scope module Register_File $end
$var wire 5 N" A1 [4:0] $end
$var wire 5 O" A2 [4:0] $end
$var wire 5 P" A3 [4:0] $end
$var wire 32 Q" WD3 [31:0] $end
$var wire 1 !" WE3 $end
$var wire 1 ! clk $end
$var wire 1 # rst_in $end
$var wire 32 R" RD2 [31:0] $end
$var wire 32 S" RD1 [31:0] $end
$var integer 32 T" i [31:0] $end
$upscope $end
$scope module Sign_Extend $end
$var wire 1 U" ImmSrc $end
$var wire 32 V" In [31:0] $end
$var wire 32 W" Imm_Ext [31:0] $end
$upscope $end
$upscope $end
$scope module Main_core_C $end
$var wire 32 X" RD_Instr [31:0] $end
$var wire 32 Y" ReadData [31:0] $end
$var wire 1 ! clk $end
$var wire 1 # rst_in $end
$var wire 1 Z" Zero $end
$var wire 32 [" SrcB [31:0] $end
$var wire 1 \" ResultSrc $end
$var wire 32 ]" Result [31:0] $end
$var wire 1 ^" RegWrite $end
$var wire 32 _" RD2_Top [31:0] $end
$var wire 32 `" RD1_Top [31:0] $end
$var wire 32 a" PC_Top [31:0] $end
$var wire 32 b" PCPlus4 [31:0] $end
$var wire 1 c" OverFlow $end
$var wire 1 d" Negative $end
$var wire 1 / MemWrite $end
$var wire 32 e" Imm_Ext_Top [31:0] $end
$var wire 2 f" ImmSrc [1:0] $end
$var wire 1 g" Carry $end
$var wire 1 h" ALUSrc $end
$var wire 32 i" ALUResult [31:0] $end
$var wire 3 j" ALUControl_Top [2:0] $end
$scope module ALU $end
$var wire 1 g" Carry $end
$var wire 1 c" OverFlow $end
$var wire 1 Z" Zero $end
$var wire 33 k" Sum [32:0] $end
$var wire 32 l" Result [31:0] $end
$var wire 1 d" Negative $end
$var wire 1 m" Cout $end
$var wire 32 n" B [31:0] $end
$var wire 3 o" ALUControl [2:0] $end
$var wire 32 p" A [31:0] $end
$upscope $end
$scope module Control_Unit_Top $end
$var wire 7 q" Op [6:0] $end
$var wire 3 r" funct3 [2:0] $end
$var wire 7 s" funct7 [6:0] $end
$var wire 1 \" ResultSrc $end
$var wire 1 ^" RegWrite $end
$var wire 1 / MemWrite $end
$var wire 2 t" ImmSrc [1:0] $end
$var wire 1 u" Branch $end
$var wire 1 h" ALUSrc $end
$var wire 2 v" ALUOp [1:0] $end
$var wire 3 w" ALUControl [2:0] $end
$scope module ALU_Decoder $end
$var wire 3 x" funct3 [2:0] $end
$var wire 7 y" funct7 [6:0] $end
$var wire 7 z" op [6:0] $end
$var wire 2 {" ALUOp [1:0] $end
$var wire 3 |" ALUControl [2:0] $end
$upscope $end
$scope module Main_Decoder $end
$var wire 7 }" Op [6:0] $end
$var wire 1 \" ResultSrc $end
$var wire 1 ^" RegWrite $end
$var wire 1 / MemWrite $end
$var wire 2 ~" ImmSrc [1:0] $end
$var wire 1 u" Branch $end
$var wire 1 h" ALUSrc $end
$var wire 2 !# ALUOp [1:0] $end
$upscope $end
$upscope $end
$scope module Mux_DataMemory_to_Register $end
$var wire 32 "# a [31:0] $end
$var wire 32 ## b [31:0] $end
$var wire 1 \" s $end
$var wire 32 $# c [31:0] $end
$upscope $end
$scope module Mux_Register_to_ALU $end
$var wire 1 h" s $end
$var wire 32 %# c [31:0] $end
$var wire 32 &# b [31:0] $end
$var wire 32 '# a [31:0] $end
$upscope $end
$scope module PC $end
$var wire 1 ! clk $end
$var wire 1 # rst_in $end
$var wire 32 (# PC_Next [31:0] $end
$var reg 32 )# PC [31:0] $end
$upscope $end
$scope module PC_Adder $end
$var wire 32 *# a [31:0] $end
$var wire 32 +# b [31:0] $end
$var wire 32 ,# c [31:0] $end
$upscope $end
$scope module Register_File $end
$var wire 5 -# A1 [4:0] $end
$var wire 5 .# A2 [4:0] $end
$var wire 5 /# A3 [4:0] $end
$var wire 32 0# WD3 [31:0] $end
$var wire 1 ^" WE3 $end
$var wire 1 ! clk $end
$var wire 1 # rst_in $end
$var wire 32 1# RD2 [31:0] $end
$var wire 32 2# RD1 [31:0] $end
$var integer 32 3# i [31:0] $end
$upscope $end
$scope module Sign_Extend $end
$var wire 1 4# ImmSrc $end
$var wire 32 5# In [31:0] $end
$var wire 32 6# Imm_Ext [31:0] $end
$upscope $end
$upscope $end
$scope module Rst_Controller $end
$var wire 1 " main_rst $end
$var wire 1 # rst_in $end
$upscope $end
$scope module Voter $end
$var wire 32 7# ALUResult_A [31:0] $end
$var wire 32 8# ALUResult_B [31:0] $end
$var wire 32 9# ALUResult_C [31:0] $end
$var wire 1 1 MemWrite_A $end
$var wire 1 0 MemWrite_B $end
$var wire 1 / MemWrite_C $end
$var wire 32 :# PC_Top_A [31:0] $end
$var wire 32 ;# PC_Top_B [31:0] $end
$var wire 32 <# PC_Top_C [31:0] $end
$var wire 32 =# RD2_Top_A [31:0] $end
$var wire 32 ># RD2_Top_B [31:0] $end
$var wire 32 ?# RD2_Top_C [31:0] $end
$var wire 1 # rst_in $end
$var wire 3 @# Voter_state [2:0] $end
$var wire 32 A# RD2_Top [31:0] $end
$var wire 32 B# PC_Top [31:0] $end
$var wire 1 2 MemWrite $end
$var wire 32 C# ALUResult [31:0] $end
$upscope $end
$upscope $end
$upscope $end
$enddefinitions $end
$comment Show the parameter values. $end
$dumpall
$end
#0
$dumpvars
b0 C#
bx B#
b0 A#
b0x @#
b0 ?#
b0 >#
b0 =#
bx <#
bx ;#
bx :#
b0 9#
b0 8#
b0 7#
b0 6#
b0 5#
04#
b100000 3#
b0 2#
b0 1#
b0 0#
b0 /#
b0 .#
b0 -#
bx ,#
b100 +#
bx *#
bx )#
bx (#
b0 '#
b0 &#
b0 %#
b0 $#
b0 ##
b0 "#
b0 !#
b0 ~"
b0 }"
b0 |"
b0 {"
b0 z"
b0 y"
b0 x"
b0 w"
b0 v"
0u"
b0 t"
b0 s"
b0 r"
b0 q"
b0 p"
b0 o"
b0 n"
0m"
b0 l"
b0 k"
b0 j"
b0 i"
0h"
0g"
b0 f"
b0 e"
0d"
0c"
bx b"
bx a"
b0 `"
b0 _"
0^"
b0 ]"
0\"
b0 ["
1Z"
b0 Y"
b0 X"
b0 W"
b0 V"
0U"
b100000 T"
b0 S"
b0 R"
b0 Q"
b0 P"
b0 O"
b0 N"
bx M"
b100 L"
bx K"
bx J"
bx I"
b0 H"
b0 G"
b0 F"
b0 E"
b0 D"
b0 C"
b0 B"
b0 A"
b0 @"
b0 ?"
b0 >"
b0 ="
b0 <"
b0 ;"
b0 :"
b0 9"
08"
b0 7"
b0 6"
b0 5"
b0 4"
b0 3"
b0 2"
b0 1"
00"
b0 /"
b0 ."
b0 -"
b0 ,"
0+"
0*"
b0 )"
b0 ("
0'"
0&"
bx %"
bx $"
b0 #"
b0 ""
0!"
b0 ~
0}
b0 |
1{
b0 z
b0 y
b0 x
b0 w
0v
b100000 u
b0 t
b0 s
b0 r
b0 q
b0 p
b0 o
bx n
b100 m
bx l
bx k
bx j
b0 i
b0 h
b0 g
b0 f
b0 e
b0 d
b0 c
b0 b
b0 a
b0 `
b0 _
b0 ^
b0 ]
b0 \
b0 [
b0 Z
0Y
b0 X
b0 W
b0 V
b0 U
b0 T
b0 S
b0 R
0Q
b0 P
b0 O
b0 N
b0 M
0L
0K
b0 J
b0 I
0H
0G
bx F
bx E
b0 D
b0 C
0B
b0 A
0@
b0 ?
1>
b0 =
b0 <
bx ;
b0 :
b0 9
b0 8
b0 7
b0 6
b0 5
b0 4
b0 3
02
01
00
0/
bx .
bx -
bx ,
bx +
b0 *
b0 )
b0 (
b0 '
b0 &
b0 %
b0x $
0#
0"
0!
$end
#50
b1 $
b1 @#
b0 .
b0 ;
b0 B#
b100 b"
b100 (#
b100 ,#
b0 +
b0 a"
b0 )#
b0 *#
b0 <#
b100 %"
b100 I"
b100 M"
b0 ,
b0 $"
b0 J"
b0 K"
b0 ;#
b100 F
b100 j
b100 n
b0 -
b0 E
b0 k
b0 l
b0 :#
1!
#100
0!
#150
b11111111111111111111111111111111 A
b11111111111111111111111111111111 f
b11111111111111111111111111111111 r
b11111111111111111111111111111111 ~
b11111111111111111111111111111111 E"
b11111111111111111111111111111111 Q"
b11111111111111111111111111111111 ]"
b11111111111111111111111111111111 $#
b11111111111111111111111111111111 0#
1B
1L
1!"
1+"
1^"
1h"
1@
1}
1\"
b1 q
b11 U
b11 ^
b11 a
b10 V
b10 \
b1 P"
b11 4"
b11 ="
b11 @"
b10 5"
b10 ;"
b1 /#
b11 q"
b11 z"
b11 }"
b10 r"
b10 x"
b10000010000011 &
b10000010000011 :
b10000010000011 <
b10000010000011 w
b10000010000011 y
b10000010000011 V"
b10000010000011 X"
b10000010000011 5#
b11111111111111111111111111111111 %
b11111111111111111111111111111111 8
b11111111111111111111111111111111 =
b11111111111111111111111111111111 e
b11111111111111111111111111111111 z
b11111111111111111111111111111111 D"
b11111111111111111111111111111111 Y"
b11111111111111111111111111111111 ##
1#
1"
1!
#200
0!
#250
b1111 A
b1111 f
b1111 r
b1111 ~
b1111 E"
b1111 Q"
b1111 ]"
b1111 $#
b1111 0#
b1111 %
b1111 8
b1111 =
b1111 e
b1111 z
b1111 D"
b1111 Y"
b1111 ##
b1 6
b1 9
b1 C#
0>
0{
0Z"
b1 5
b1 M
b1 P
b1 d
b1 7#
b1 4
b1 ,"
b1 /"
b1 C"
b1 8#
b1 3
b1 i"
b1 l"
b1 "#
b1 9#
b1 O
b1 ."
b1 k"
b11111111111111111111111111111111 *
b11111111111111111111111111111111 7
b11111111111111111111111111111111 A#
b1 ?
b1 R
b1 g
b1 |
b1 1"
b1 F"
b1 ["
b1 n"
b1 %#
b11111111111111111111111111111111 )
b11111111111111111111111111111111 C
b11111111111111111111111111111111 i
b11111111111111111111111111111111 s
b11111111111111111111111111111111 =#
b1 I
b1 h
b1 x
b11111111111111111111111111111111 (
b11111111111111111111111111111111 ""
b11111111111111111111111111111111 H"
b11111111111111111111111111111111 R"
b11111111111111111111111111111111 >#
b1 ("
b1 G"
b1 W"
b11111111111111111111111111111111 '
b11111111111111111111111111111111 _"
b11111111111111111111111111111111 '#
b11111111111111111111111111111111 1#
b11111111111111111111111111111111 ?#
b1 e"
b1 &#
b1 6#
b1 p
b10 q
b1 O"
b10 P"
b1 .#
b10 /#
b100000010000100000011 &
b100000010000100000011 :
b100000010000100000011 <
b100000010000100000011 w
b100000010000100000011 y
b100000010000100000011 V"
b100000010000100000011 X"
b100000010000100000011 5#
b100 .
b100 ;
b100 B#
b1000 b"
b1000 (#
b1000 ,#
b100 +
b100 a"
b100 )#
b100 *#
b100 <#
b1000 %"
b1000 I"
b1000 M"
b100 ,
b100 $"
b100 J"
b100 K"
b100 ;#
b1000 F
b1000 j
b1000 n
b100 -
b100 E
b100 k
b100 l
b100 :#
1!
#300
0!
#350
b0 %
b0 8
b0 =
b0 e
b0 z
b0 D"
b0 Y"
b0 ##
b1110 6
b1110 9
b1110 C#
b1110 5
b1110 M
b1110 P
b1110 d
b1110 7#
b1110 4
b1110 ,"
b1110 /"
b1110 C"
b1110 8#
b1110 3
b1110 i"
b1110 l"
b1110 "#
b1110 9#
0G
1K
0&"
1*"
0c"
1g"
1Q
10"
1m"
b1110 A
b1110 f
b1110 r
b1110 ~
b1110 E"
b1110 Q"
b1110 ]"
b1110 $#
b1110 0#
b100000000000000000000000000001110 O
b1111 *
b1111 7
b1111 A#
0L
b1111 ?
b1111 R
b1111 g
b100000000000000000000000000001110 ."
0+"
b1111 |
b1111 1"
b1111 F"
b100000000000000000000000000001110 k"
0h"
b1111 ["
b1111 n"
b1111 %#
b11111111111111111111111111111111 D
b11111111111111111111111111111111 T
b11111111111111111111111111111111 t
b1111 )
b1111 C
b1111 i
b1111 s
b1111 =#
0@
b10 Z
b10 _
b10 c
b10 I
b10 h
b10 x
b11111111111111111111111111111111 #"
b11111111111111111111111111111111 3"
b11111111111111111111111111111111 S"
b1111 (
b1111 ""
b1111 H"
b1111 R"
b1111 >#
0}
b10 9"
b10 >"
b10 B"
b10 ("
b10 G"
b10 W"
b11111111111111111111111111111111 `"
b11111111111111111111111111111111 p"
b11111111111111111111111111111111 2#
b1111 '
b1111 _"
b1111 '#
b1111 1#
b1111 ?#
0\"
b10 v"
b10 {"
b10 !#
b10 e"
b10 &#
b10 6#
b1 o
b10 p
b11 q
b110011 U
b110011 ^
b110011 a
b0 V
b0 \
b1 N"
b10 O"
b11 P"
b110011 4"
b110011 ="
b110011 @"
b0 5"
b0 ;"
b1 -#
b10 .#
b11 /#
b110011 q"
b110011 z"
b110011 }"
b0 r"
b0 x"
b1000001000000110110011 &
b1000001000000110110011 :
b1000001000000110110011 <
b1000001000000110110011 w
b1000001000000110110011 y
b1000001000000110110011 V"
b1000001000000110110011 X"
b1000001000000110110011 5#
b1000 .
b1000 ;
b1000 B#
b1100 F
b1100 j
b1100 n
b1000 -
b1000 E
b1000 k
b1000 l
b1000 :#
b1100 %"
b1100 I"
b1100 M"
b1000 ,
b1000 $"
b1000 J"
b1000 K"
b1000 ;#
b1100 b"
b1100 (#
b1100 ,#
b1000 +
b1000 a"
b1000 )#
b1000 *#
b1000 <#
1!
#400
0!
#450
b10101011110011011110111110101011 %
b10101011110011011110111110101011 8
b10101011110011011110111110101011 =
b10101011110011011110111110101011 e
b10101011110011011110111110101011 z
b10101011110011011110111110101011 D"
b10101011110011011110111110101011 Y"
b10101011110011011110111110101011 ##
b10 A
b10 f
b10 r
b10 6
b10 9
b10 C#
b10 ~
b10 E"
b10 Q"
b10 ]"
b10 $#
b10 0#
b10 5
b10 M
b10 P
b10 d
b10 7#
b10 4
b10 ,"
b10 /"
b10 C"
b10 8#
b10 3
b10 i"
b10 l"
b10 "#
b10 9#
0K
0*"
0g"
0Q
00"
0m"
b10 O
b1110 *
b1110 7
b1110 A#
b10 ?
b10 R
b10 g
0B
1v
1L
12
b10 ."
b10 |
b10 1"
b10 F"
0!"
1U"
1+"
b10 k"
b10 ["
b10 n"
b10 %#
0^"
14#
1h"
b0 D
b0 T
b0 t
b1110 )
b1110 C
b1110 i
b1110 s
b1110 =#
b1 J
b1 X
b1 b
11
b0 Z
b0 _
b0 c
b10 I
b10 h
b10 x
b0 #"
b0 3"
b0 S"
b1110 (
b1110 ""
b1110 H"
b1110 R"
b1110 >#
b1 )"
b1 7"
b1 A"
10
b0 9"
b0 >"
b0 B"
b10 ("
b10 G"
b10 W"
b0 `"
b0 p"
b0 2#
b1110 '
b1110 _"
b1110 '#
b1110 1#
b1110 ?#
b1 f"
b1 t"
b1 ~"
1/
b0 v"
b0 {"
b0 !#
b10 e"
b10 &#
b10 6#
b0 o
b11 p
b10 q
b100011 U
b100011 ^
b100011 a
b10 V
b10 \
b0 N"
b11 O"
b10 P"
b100011 4"
b100011 ="
b100011 @"
b10 5"
b10 ;"
b0 -#
b11 .#
b10 /#
b100011 q"
b100011 z"
b100011 }"
b10 r"
b10 x"
b1100000010000100100011 &
b1100000010000100100011 :
b1100000010000100100011 <
b1100000010000100100011 w
b1100000010000100100011 y
b1100000010000100100011 V"
b1100000010000100100011 X"
b1100000010000100100011 5#
b1100 .
b1100 ;
b1100 B#
b10000 b"
b10000 (#
b10000 ,#
b1100 +
b1100 a"
b1100 )#
b1100 *#
b1100 <#
b10000 %"
b10000 I"
b10000 M"
b1100 ,
b1100 $"
b1100 J"
b1100 K"
b1100 ;#
b10000 F
b10000 j
b10000 n
b1100 -
b1100 E
b1100 k
b1100 l
b1100 :#
1!
#500
0!
#550
xG
xH
x>
xK
x&"
x'"
x{
x*"
bx 6
bx 9
bx C#
xc"
xd"
xZ"
xg"
bx 5
bx M
bx P
bx d
bx 7#
xQ
bx 4
bx ,"
bx /"
bx C"
bx 8#
x0"
b0x $
bx 3
bx i"
bx l"
bx "#
bx 9#
xm"
bx A
bx f
bx r
bx N
bx S
bx [
bx `
b0x @#
bx ~
bx E"
bx Q"
bx -"
bx 2"
bx :"
bx ?"
bx ]"
bx $#
bx 0#
bx j"
bx o"
bx w"
bx |"
bx O
bx *
bx 7
bx A#
xB
xv
xL
x2
bx ?
bx R
bx g
bx ."
x!"
xU"
x+"
bx |
bx 1"
bx F"
bx k"
x^"
x4#
xh"
bx ["
bx n"
bx %#
bx D
bx T
bx t
bx )
bx C
bx i
bx s
bx =#
bx J
bx X
bx b
x1
x@
xY
bx Z
bx _
bx c
bx I
bx h
bx x
bx #"
bx 3"
bx S"
bx (
bx ""
bx H"
bx R"
bx >#
bx )"
bx 7"
bx A"
x0
x}
x8"
bx 9"
bx >"
bx B"
bx ("
bx G"
bx W"
bx `"
bx p"
bx 2#
bx '
bx _"
bx '#
bx 1#
bx ?#
bx f"
bx t"
bx ~"
x/
x\"
xu"
bx v"
bx {"
bx !#
bx e"
bx &#
bx 6#
bx o
bx p
bx q
bx U
bx ^
bx a
bx V
bx \
bx W
bx ]
bx N"
bx O"
bx P"
bx 4"
bx ="
bx @"
bx 5"
bx ;"
bx 6"
bx <"
bx -#
bx .#
bx /#
bx q"
bx z"
bx }"
bx r"
bx x"
bx s"
bx y"
bx &
bx :
bx <
bx w
bx y
bx V"
bx X"
bx 5#
b0x0000 .
b0x0000 ;
b0x0000 B#
bx %
bx 8
bx =
bx e
bx z
bx D"
bx Y"
bx ##
b10100 F
b10100 j
b10100 n
b10000 -
b10000 E
b10000 k
b10000 l
b10000 :#
b10100 %"
b10100 I"
b10100 M"
b10000 ,
b10000 $"
b10000 J"
b10000 K"
b10000 ;#
b10100 b"
b10100 (#
b10100 ,#
b10000 +
b10000 a"
b10000 )#
b10000 *#
b10000 <#
1!
#600
0!
#650
b0x0x00 .
b0x0x00 ;
b0x0x00 B#
b11000 b"
b11000 (#
b11000 ,#
b10100 +
b10100 a"
b10100 )#
b10100 *#
b10100 <#
b11000 %"
b11000 I"
b11000 M"
b10100 ,
b10100 $"
b10100 J"
b10100 K"
b10100 ;#
b11000 F
b11000 j
b11000 n
b10100 -
b10100 E
b10100 k
b10100 l
b10100 :#
1!
#700
0!
#750
b0xx000 .
b0xx000 ;
b0xx000 B#
b11100 F
b11100 j
b11100 n
b11000 -
b11000 E
b11000 k
b11000 l
b11000 :#
b11100 %"
b11100 I"
b11100 M"
b11000 ,
b11000 $"
b11000 J"
b11000 K"
b11000 ;#
b11100 b"
b11100 (#
b11100 ,#
b11000 +
b11000 a"
b11000 )#
b11000 *#
b11000 <#
1!
