RISCV_TMR/output/dumpfile.vcd
$date
	Tue May 09 20:42:44 2023
$end
$version
	Icarus Verilog
$end
$timescale
	1s
$end
$scope module Top_module_tb $end
$var reg 1 ! clk $end
$var reg 1 " rst $end
$scope module Top_module $end
$var wire 1 ! clk $end
$var wire 1 " rst $end
$var wire 38 # enc_RD_Instr [37:0] $end
$var wire 3 $ Voter_state [2:0] $end
$var wire 32 % ReadData [31:0] $end
$var wire 32 & RD_Instr [31:0] $end
$var wire 32 ' RD2_Top_C [31:0] $end
$var wire 32 ( RD2_Top_B [31:0] $end
$var wire 32 ) RD2_Top_A [31:0] $end
$var wire 32 * RD2_Top [31:0] $end
$var wire 32 + PC_Top_C [31:0] $end
$var wire 32 , PC_Top_B [31:0] $end
$var wire 32 - PC_Top_A [31:0] $end
$var wire 32 . PC_Top [31:0] $end
$var wire 1 / MemWrite_C $end
$var wire 1 0 MemWrite_B $end
$var wire 1 1 MemWrite_A $end
$var wire 1 2 MemWrite $end
$var wire 32 3 ALUResult_C [31:0] $end
$var wire 32 4 ALUResult_B [31:0] $end
$var wire 32 5 ALUResult_A [31:0] $end
$var wire 32 6 ALUResult [31:0] $end
$scope module Data_Memory $end
$var wire 1 ! clk $end
$var wire 1 " rst $end
$var wire 1 2 WE $end
$var wire 32 7 WD [31:0] $end
$var wire 32 8 RD [31:0] $end
$var wire 32 9 A [31:0] $end
$upscope $end
$scope module Instruction_Memory $end
$var wire 1 " rst $end
$var wire 38 : RD [37:0] $end
$var wire 32 ; A [31:0] $end
$upscope $end
$scope module Main_core_A $end
$var wire 32 < ReadData [31:0] $end
$var wire 1 ! clk $end
$var wire 1 " rst $end
$var wire 1 = Zero $end
$var wire 32 > SrcB [31:0] $end
$var wire 1 ? ResultSrc $end
$var wire 32 @ Result [31:0] $end
$var wire 1 A RegWrite $end
$var wire 32 B RD_Instr [31:0] $end
$var wire 32 C RD2_Top [31:0] $end
$var wire 32 D RD1_Top [31:0] $end
$var wire 32 E PC_Top [31:0] $end
$var wire 32 F PCPlus4 [31:0] $end
$var wire 1 G OverFlow $end
$var wire 1 H Negative $end
$var wire 1 1 MemWrite $end
$var wire 32 I Imm_Ext_Top [31:0] $end
$var wire 2 J ImmSrc [1:0] $end
$var wire 1 K Carry $end
$var wire 1 L ALUSrc $end
$var wire 32 M ALUResult [31:0] $end
$var wire 3 N ALUControl_Top [2:0] $end
$scope module ALU $end
$var wire 1 K Carry $end
$var wire 1 G OverFlow $end
$var wire 1 = Zero $end
$var wire 33 O Sum [32:0] $end
$var wire 32 P Result [31:0] $end
$var wire 1 H Negative $end
$var wire 1 Q Cout $end
$var wire 32 R B [31:0] $end
$var wire 3 S ALUControl [2:0] $end
$var wire 32 T A [31:0] $end
$upscope $end
$scope module Control_Unit_Top $end
$var wire 7 U Op [6:0] $end
$var wire 3 V funct3 [2:0] $end
$var wire 7 W funct7 [6:0] $end
$var wire 1 ? ResultSrc $end
$var wire 1 A RegWrite $end
$var wire 1 1 MemWrite $end
$var wire 2 X ImmSrc [1:0] $end
$var wire 1 Y Branch $end
$var wire 1 L ALUSrc $end
$var wire 2 Z ALUOp [1:0] $end
$var wire 3 [ ALUControl [2:0] $end
$scope module ALU_Decoder $end
$var wire 3 \ funct3 [2:0] $end
$var wire 7 ] funct7 [6:0] $end
$var wire 7 ^ op [6:0] $end
$var wire 2 _ ALUOp [1:0] $end
$var wire 3 ` ALUControl [2:0] $end
$upscope $end
$scope module Main_Decoder $end
$var wire 7 a Op [6:0] $end
$var wire 1 ? ResultSrc $end
$var wire 1 A RegWrite $end
$var wire 1 1 MemWrite $end
$var wire 2 b ImmSrc [1:0] $end
$var wire 1 Y Branch $end
$var wire 1 L ALUSrc $end
$var wire 2 c ALUOp [1:0] $end
$upscope $end
$upscope $end
$scope module Mux_DataMemory_to_Register $end
$var wire 32 d a [31:0] $end
$var wire 32 e b [31:0] $end
$var wire 1 ? s $end
$var wire 32 f c [31:0] $end
$upscope $end
$scope module Mux_Register_to_ALU $end
$var wire 1 L s $end
$var wire 32 g c [31:0] $end
$var wire 32 h b [31:0] $end
$var wire 32 i a [31:0] $end
$upscope $end
$scope module PC $end
$var wire 1 ! clk $end
$var wire 1 " rst $end
$var wire 32 j PC_Next [31:0] $end
$var reg 32 k PC [31:0] $end
$upscope $end
$scope module PC_Adder $end
$var wire 32 l a [31:0] $end
$var wire 32 m b [31:0] $end
$var wire 32 n c [31:0] $end
$upscope $end
$scope module Register_File $end
$var wire 5 o A1 [4:0] $end
$var wire 5 p A2 [4:0] $end
$var wire 5 q A3 [4:0] $end
$var wire 32 r WD3 [31:0] $end
$var wire 1 A WE3 $end
$var wire 1 ! clk $end
$var wire 1 " rst $end
$var wire 32 s RD2 [31:0] $end
$var wire 32 t RD1 [31:0] $end
$var integer 32 u i [31:0] $end
$upscope $end
$scope module Sign_Extend $end
$var wire 1 v ImmSrc $end
$var wire 32 w In [31:0] $end
$var wire 32 x Imm_Ext [31:0] $end
$upscope $end
$upscope $end
$scope module Main_core_B $end
$var wire 32 y ReadData [31:0] $end
$var wire 1 ! clk $end
$var wire 1 " rst $end
$var wire 1 z Zero $end
$var wire 32 { SrcB [31:0] $end
$var wire 1 | ResultSrc $end
$var wire 32 } Result [31:0] $end
$var wire 1 ~ RegWrite $end
$var wire 32 !" RD_Instr [31:0] $end
$var wire 32 "" RD2_Top [31:0] $end
$var wire 32 #" RD1_Top [31:0] $end
$var wire 32 $" PC_Top [31:0] $end
$var wire 32 %" PCPlus4 [31:0] $end
$var wire 1 &" OverFlow $end
$var wire 1 '" Negative $end
$var wire 1 0 MemWrite $end
$var wire 32 (" Imm_Ext_Top [31:0] $end
$var wire 2 )" ImmSrc [1:0] $end
$var wire 1 *" Carry $end
$var wire 1 +" ALUSrc $end
$var wire 32 ," ALUResult [31:0] $end
$var wire 3 -" ALUControl_Top [2:0] $end
$scope module ALU $end
$var wire 1 *" Carry $end
$var wire 1 &" OverFlow $end
$var wire 1 z Zero $end
$var wire 33 ." Sum [32:0] $end
$var wire 32 /" Result [31:0] $end
$var wire 1 '" Negative $end
$var wire 1 0" Cout $end
$var wire 32 1" B [31:0] $end
$var wire 3 2" ALUControl [2:0] $end
$var wire 32 3" A [31:0] $end
$upscope $end
$scope module Control_Unit_Top $end
$var wire 7 4" Op [6:0] $end
$var wire 3 5" funct3 [2:0] $end
$var wire 7 6" funct7 [6:0] $end
$var wire 1 | ResultSrc $end
$var wire 1 ~ RegWrite $end
$var wire 1 0 MemWrite $end
$var wire 2 7" ImmSrc [1:0] $end
$var wire 1 8" Branch $end
$var wire 1 +" ALUSrc $end
$var wire 2 9" ALUOp [1:0] $end
$var wire 3 :" ALUControl [2:0] $end
$scope module ALU_Decoder $end
$var wire 3 ;" funct3 [2:0] $end
$var wire 7 <" funct7 [6:0] $end
$var wire 7 =" op [6:0] $end
$var wire 2 >" ALUOp [1:0] $end
$var wire 3 ?" ALUControl [2:0] $end
$upscope $end
$scope module Main_Decoder $end
$var wire 7 @" Op [6:0] $end
$var wire 1 | ResultSrc $end
$var wire 1 ~ RegWrite $end
$var wire 1 0 MemWrite $end
$var wire 2 A" ImmSrc [1:0] $end
$var wire 1 8" Branch $end
$var wire 1 +" ALUSrc $end
$var wire 2 B" ALUOp [1:0] $end
$upscope $end
$upscope $end
$scope module Mux_DataMemory_to_Register $end
$var wire 32 C" a [31:0] $end
$var wire 32 D" b [31:0] $end
$var wire 1 | s $end
$var wire 32 E" c [31:0] $end
$upscope $end
$scope module Mux_Register_to_ALU $end
$var wire 1 +" s $end
$var wire 32 F" c [31:0] $end
$var wire 32 G" b [31:0] $end
$var wire 32 H" a [31:0] $end
$upscope $end
$scope module PC $end
$var wire 1 ! clk $end
$var wire 1 " rst $end
$var wire 32 I" PC_Next [31:0] $end
$var reg 32 J" PC [31:0] $end
$upscope $end
$scope module PC_Adder $end
$var wire 32 K" a [31:0] $end
$var wire 32 L" b [31:0] $end
$var wire 32 M" c [31:0] $end
$upscope $end
$scope module Register_File $end
$var wire 5 N" A1 [4:0] $end
$var wire 5 O" A2 [4:0] $end
$var wire 5 P" A3 [4:0] $end
$var wire 32 Q" WD3 [31:0] $end
$var wire 1 ~ WE3 $end
$var wire 1 ! clk $end
$var wire 1 " rst $end
$var wire 32 R" RD2 [31:0] $end
$var wire 32 S" RD1 [31:0] $end
$var integer 32 T" i [31:0] $end
$upscope $end
$scope module Sign_Extend $end
$var wire 1 U" ImmSrc $end
$var wire 32 V" In [31:0] $end
$var wire 32 W" Imm_Ext [31:0] $end
$upscope $end
$upscope $end
$scope module Main_core_C $end
$var wire 32 X" ReadData [31:0] $end
$var wire 1 ! clk $end
$var wire 1 " rst $end
$var wire 1 Y" Zero $end
$var wire 32 Z" SrcB [31:0] $end
$var wire 1 [" ResultSrc $end
$var wire 32 \" Result [31:0] $end
$var wire 1 ]" RegWrite $end
$var wire 32 ^" RD_Instr [31:0] $end
$var wire 32 _" RD2_Top [31:0] $end
$var wire 32 `" RD1_Top [31:0] $end
$var wire 32 a" PC_Top [31:0] $end
$var wire 32 b" PCPlus4 [31:0] $end
$var wire 1 c" OverFlow $end
$var wire 1 d" Negative $end
$var wire 1 / MemWrite $end
$var wire 32 e" Imm_Ext_Top [31:0] $end
$var wire 2 f" ImmSrc [1:0] $end
$var wire 1 g" Carry $end
$var wire 1 h" ALUSrc $end
$var wire 32 i" ALUResult [31:0] $end
$var wire 3 j" ALUControl_Top [2:0] $end
$scope module ALU $end
$var wire 1 g" Carry $end
$var wire 1 c" OverFlow $end
$var wire 1 Y" Zero $end
$var wire 33 k" Sum [32:0] $end
$var wire 32 l" Result [31:0] $end
$var wire 1 d" Negative $end
$var wire 1 m" Cout $end
$var wire 32 n" B [31:0] $end
$var wire 3 o" ALUControl [2:0] $end
$var wire 32 p" A [31:0] $end
$upscope $end
$scope module Control_Unit_Top $end
$var wire 7 q" Op [6:0] $end
$var wire 3 r" funct3 [2:0] $end
$var wire 7 s" funct7 [6:0] $end
$var wire 1 [" ResultSrc $end
$var wire 1 ]" RegWrite $end
$var wire 1 / MemWrite $end
$var wire 2 t" ImmSrc [1:0] $end
$var wire 1 u" Branch $end
$var wire 1 h" ALUSrc $end
$var wire 2 v" ALUOp [1:0] $end
$var wire 3 w" ALUControl [2:0] $end
$scope module ALU_Decoder $end
$var wire 3 x" funct3 [2:0] $end
$var wire 7 y" funct7 [6:0] $end
$var wire 7 z" op [6:0] $end
$var wire 2 {" ALUOp [1:0] $end
$var wire 3 |" ALUControl [2:0] $end
$upscope $end
$scope module Main_Decoder $end
$var wire 7 }" Op [6:0] $end
$var wire 1 [" ResultSrc $end
$var wire 1 ]" RegWrite $end
$var wire 1 / MemWrite $end
$var wire 2 ~" ImmSrc [1:0] $end
$var wire 1 u" Branch $end
$var wire 1 h" ALUSrc $end
$var wire 2 !# ALUOp [1:0] $end
$upscope $end
$upscope $end
$scope module Mux_DataMemory_to_Register $end
$var wire 32 "# a [31:0] $end
$var wire 32 ## b [31:0] $end
$var wire 1 [" s $end
$var wire 32 $# c [31:0] $end
$upscope $end
$scope module Mux_Register_to_ALU $end
$var wire 1 h" s $end
$var wire 32 %# c [31:0] $end
$var wire 32 &# b [31:0] $end
$var wire 32 '# a [31:0] $end
$upscope $end
$scope module PC $end
$var wire 1 ! clk $end
$var wire 1 " rst $end
$var wire 32 (# PC_Next [31:0] $end
$var reg 32 )# PC [31:0] $end
$upscope $end
$scope module PC_Adder $end
$var wire 32 *# a [31:0] $end
$var wire 32 +# b [31:0] $end
$var wire 32 ,# c [31:0] $end
$upscope $end
$scope module Register_File $end
$var wire 5 -# A1 [4:0] $end
$var wire 5 .# A2 [4:0] $end
$var wire 5 /# A3 [4:0] $end
$var wire 32 0# WD3 [31:0] $end
$var wire 1 ]" WE3 $end
$var wire 1 ! clk $end
$var wire 1 " rst $end
$var wire 32 1# RD2 [31:0] $end
$var wire 32 2# RD1 [31:0] $end
$var integer 32 3# i [31:0] $end
$upscope $end
$scope module Sign_Extend $end
$var wire 1 4# ImmSrc $end
$var wire 32 5# In [31:0] $end
$var wire 32 6# Imm_Ext [31:0] $end
$upscope $end
$upscope $end
$scope module Voter $end
$var wire 32 7# ALUResult_A [31:0] $end
$var wire 32 8# ALUResult_B [31:0] $end
$var wire 32 9# ALUResult_C [31:0] $end
$var wire 1 1 MemWrite_A $end
$var wire 1 0 MemWrite_B $end
$var wire 1 / MemWrite_C $end
$var wire 32 :# PC_Top_A [31:0] $end
$var wire 32 ;# PC_Top_B [31:0] $end
$var wire 32 <# PC_Top_C [31:0] $end
$var wire 32 =# RD2_Top_A [31:0] $end
$var wire 32 ># RD2_Top_B [31:0] $end
$var wire 32 ?# RD2_Top_C [31:0] $end
$var wire 1 " rst $end
$var wire 3 @# Voter_state [2:0] $end
$var wire 32 A# RD2_Top [31:0] $end
$var wire 32 B# PC_Top [31:0] $end
$var wire 1 2 MemWrite $end
$var wire 32 C# ALUResult [31:0] $end
$upscope $end
$scope module decode_instr $end
$var wire 38 D# rcvd_data [37:0] $end
$var reg 32 E# dec_data [31:0] $end
$var integer 32 F# i [31:0] $end
$var integer 32 G# mptr [31:0] $end
$var integer 32 H# pptr [31:0] $end
$upscope $end
$upscope $end
$upscope $end
$scope module hamming_encoder $end
$var wire 32 I# data [31:0] $end
$var reg 38 J# enc_data [37:0] $end
$var integer 32 K# i [31:0] $end
$var integer 32 L# j [31:0] $end
$var integer 32 M# mptr [31:0] $end
$var integer 32 N# pptr [31:0] $end
$upscope $end
$enddefinitions $end
$comment Show the parameter values. $end
$dumpall
$end
#0
$dumpvars
b110 N#
b100000 M#
b100111 L#
b110 K#
bzxzzzzzzzzzzzzzzzxzzzzzzzxzzzxzxx J#
bz I#
b110 H#
b100000 G#
b100110 F#
b0 E#
b0 D#
b0 C#
b100 B#
b0 A#
b1 @#
b0 ?#
b0 >#
b0 =#
b100 <#
b100 ;#
b100 :#
b0 9#
b0 8#
b0 7#
b0 6#
b0 5#
04#
b100000 3#
b0 2#
b0 1#
b0 0#
b0 /#
b0 .#
b0 -#
b1000 ,#
b100 +#
b100 *#
b100 )#
b1000 (#
b0 '#
b0 &#
b0 %#
b0 $#
b0 ##
b0 "#
b0 !#
b0 ~"
b0 }"
b0 |"
b0 {"
b0 z"
b0 y"
b0 x"
b0 w"
b0 v"
0u"
b0 t"
b0 s"
b0 r"
b0 q"
b0 p"
b0 o"
b0 n"
0m"
b0 l"
b0 k"
b0 j"
b0 i"
0h"
0g"
b0 f"
b0 e"
0d"
0c"
b1000 b"
b100 a"
b0 `"
b0 _"
b0 ^"
0]"
b0 \"
0["
b0 Z"
1Y"
b0 X"
b0 W"
b0 V"
0U"
b100000 T"
b0 S"
b0 R"
b0 Q"
b0 P"
b0 O"
b0 N"
b1000 M"
b100 L"
b100 K"
b100 J"
b1000 I"
b0 H"
b0 G"
b0 F"
b0 E"
b0 D"
b0 C"
b0 B"
b0 A"
b0 @"
b0 ?"
b0 >"
b0 ="
b0 <"
b0 ;"
b0 :"
b0 9"
08"
b0 7"
b0 6"
b0 5"
b0 4"
b0 3"
b0 2"
b0 1"
00"
b0 /"
b0 ."
b0 -"
b0 ,"
0+"
0*"
b0 )"
b0 ("
0'"
0&"
b1000 %"
b100 $"
b0 #"
b0 ""
b0 !"
0~
b0 }
0|
b0 {
1z
b0 y
b0 x
b0 w
0v
b100000 u
b0 t
b0 s
b0 r
b0 q
b0 p
b0 o
b1000 n
b100 m
b100 l
b100 k
b1000 j
b0 i
b0 h
b0 g
b0 f
b0 e
b0 d
b0 c
b0 b
b0 a
b0 `
b0 _
b0 ^
b0 ]
b0 \
b0 [
b0 Z
0Y
b0 X
b0 W
b0 V
b0 U
b0 T
b0 S
b0 R
0Q
b0 P
b0 O
b0 N
b0 M
0L
0K
b0 J
b0 I
0H
0G
b1000 F
b100 E
b0 D
b0 C
b0 B
0A
b0 @
0?
b0 >
1=
b0 <
b100 ;
b0 :
b0 9
b0 8
b0 7
b0 6
b0 5
b0 4
b0 3
02
01
00
0/
b100 .
b100 -
b100 ,
b100 +
b0 *
b0 )
b0 (
b0 '
b0 &
b0 %
b1 $
b0 #
0"
0!
$end
#50
b0 .
b0 ;
b0 B#
b100 b"
b100 (#
b100 ,#
b0 +
b0 a"
b0 )#
b0 *#
b0 <#
b100 %"
b100 I"
b100 M"
b0 ,
b0 $"
b0 J"
b0 K"
b0 ;#
b100 F
b100 j
b100 n
b0 -
b0 E
b0 k
b0 l
b0 :#
1!
#100
0!
#150
b0x $
b0x @#
xc"
x&"
xG
xd"
xY"
xg"
x'"
xz
x*"
xH
bx 6
bx 9
bx C#
x=
xK
bx 3
bx i"
bx l"
bx "#
bx 9#
xm"
bx 4
bx ,"
bx /"
bx C"
bx 8#
x0"
bx 5
bx M
bx P
bx d
bx 7#
xQ
bx k"
bx ."
bx O
bx0000000000 Z"
bx0000000000 n"
bx0000000000 %#
bx0000000000 {
bx0000000000 1"
bx0000000000 F"
bx0000000000 >
bx0000000000 R
bx0000000000 g
bx \"
bx $#
bx 0#
bx }
bx E"
bx Q"
bx @
bx f
bx r
1]"
1h"
1~
1+"
1A
1L
bx0000000000 e"
bx0000000000 &#
bx0000000000 6#
bx0000000000 ("
bx0000000000 G"
bx0000000000 W"
bx0000000000 I
bx0000000000 h
bx0000000000 x
1["
1|
1?
bx00000 s"
bx00000 y"
bx00000 6"
bx00000 <"
bx00000 W
bx00000 ]
b10 r"
b10 x"
b10 5"
b10 ;"
b10 V
b10 \
b1 /#
b1 P"
b1 q
b11 q"
b11 z"
b11 }"
b11 4"
b11 ="
b11 @"
b11 U
b11 ^
b11 a
bx000000000000000010000010000011 &
bx000000000000000010000010000011 B
bx000000000000000010000010000011 w
bx000000000000000010000010000011 !"
bx000000000000000010000010000011 V"
bx000000000000000010000010000011 ^"
bx000000000000000010000010000011 5#
bx000000000000000010000010000011 E#
b100110 F#
b110 H#
b100000 G#
bx %
bx 8
bx <
bx e
bx y
bx D"
bx X"
bx ##
bx000000000000000001001000100010010101 #
bx000000000000000001001000100010010101 :
bx000000000000000001001000100010010101 D#
1"
1!
#200
0!
#250
bx0000000001 Z"
bx0000000001 n"
bx0000000001 %#
bx0000000001 {
bx0000000001 1"
bx0000000001 F"
bx0000000001 >
bx0000000001 R
bx0000000001 g
bx *
bx 7
bx A#
1]"
04#
1h"
1~
0U"
1+"
1A
0v
1L
02
bx0000000001 e"
bx0000000001 &#
bx0000000001 6#
bx '
bx _"
bx '#
bx 1#
bx ?#
bx0000000001 ("
bx0000000001 G"
bx0000000001 W"
bx (
bx ""
bx H"
bx R"
bx >#
bx0000000001 I
bx0000000001 h
bx0000000001 x
bx )
bx C
bx i
bx s
bx =#
b0 `"
b0 p"
b0 2#
b0 #"
b0 3"
b0 S"
b0 D
b0 T
b0 t
b0 f"
b0 t"
b0 ~"
0/
1["
0u"
b0 v"
b0 {"
b0 !#
b0 )"
b0 7"
b0 A"
00
1|
08"
b0 9"
b0 >"
b0 B"
b0 J
b0 X
b0 b
01
1?
0Y
b0 Z
b0 _
b0 c
bx00000 s"
bx00000 y"
bx00000 6"
bx00000 <"
bx00000 W
bx00000 ]
b1 .#
b1 O"
b1 p
b0 -#
b0 N"
b0 o
b10 r"
b10 x"
b10 5"
b10 ;"
b10 V
b10 \
b10 /#
b10 P"
b10 q
b11 q"
b11 z"
b11 }"
b11 4"
b11 ="
b11 @"
b11 U
b11 ^
b11 a
bx000000000100000010000100000011 &
bx000000000100000010000100000011 B
bx000000000100000010000100000011 w
bx000000000100000010000100000011 !"
bx000000000100000010000100000011 V"
bx000000000100000010000100000011 ^"
bx000000000100000010000100000011 5#
bx000000000100000010000100000011 E#
b100110 F#
b110 H#
b100000 G#
bx000000000010000001000001000000010110 #
bx000000000010000001000001000000010110 :
bx000000000010000001000001000000010110 D#
b100 .
b100 ;
b100 B#
b1000 b"
b1000 (#
b1000 ,#
b100 +
b100 a"
b100 )#
b100 *#
b100 <#
b1000 %"
b1000 I"
b1000 M"
b100 ,
b100 $"
b100 J"
b100 K"
b100 ;#
b1000 F
b1000 j
b1000 n
b100 -
b100 E
b100 k
b100 l
b100 :#
1!
#300
0!
#350
b0x j"
b0x o"
b0x w"
b0x |"
b0x -"
b0x 2"
b0x :"
b0x ?"
b0x N
b0x S
b0x [
b0x `
bx Z"
bx n"
bx %#
bx {
bx 1"
bx F"
bx >
bx R
bx g
0h"
0+"
0L
bx0000000010 e"
bx0000000010 &#
bx0000000010 6#
bx0000000010 ("
bx0000000010 G"
bx0000000010 W"
bx0000000010 I
bx0000000010 h
bx0000000010 x
bx `"
bx p"
bx 2#
bx #"
bx 3"
bx S"
bx D
bx T
bx t
0["
b10 v"
b10 {"
b10 !#
0|
b10 9"
b10 >"
b10 B"
0?
b10 Z
b10 _
b10 c
b10 .#
b10 O"
b10 p
b1 -#
b1 N"
b1 o
b0 r"
b0 x"
b0 5"
b0 ;"
b0 V
b0 \
b11 /#
b11 P"
b11 q
b110011 q"
b110011 z"
b110011 }"
b110011 4"
b110011 ="
b110011 @"
b110011 U
b110011 ^
b110011 a
bx000000001000001000000110110011 &
bx000000001000001000000110110011 B
bx000000001000001000000110110011 w
bx000000001000001000000110110011 !"
bx000000001000001000000110110011 V"
bx000000001000001000000110110011 ^"
bx000000001000001000000110110011 5#
bx000000001000001000000110110011 E#
b100110 F#
b110 H#
b100000 G#
bx000000000100000100000001101110010110 #
bx000000000100000100000001101110010110 :
bx000000000100000100000001101110010110 D#
b1000 .
b1000 ;
b1000 B#
b1100 F
b1100 j
b1100 n
b1000 -
b1000 E
b1000 k
b1000 l
b1000 :#
b1100 %"
b1100 I"
b1100 M"
b1000 ,
b1000 $"
b1000 J"
b1000 K"
b1000 ;#
b1100 b"
b1100 (#
b1100 ,#
b1000 +
b1000 a"
b1000 )#
b1000 *#
b1000 <#
1!
#400
0!
#450
bx0000000010 Z"
bx0000000010 n"
bx0000000010 %#
bx0000000010 {
bx0000000010 1"
bx0000000010 F"
bx0000000010 >
bx0000000010 R
bx0000000010 g
b0 j"
b0 o"
b0 w"
b0 |"
b0 -"
b0 2"
b0 :"
b0 ?"
b0 N
b0 S
b0 [
b0 `
b0 `"
b0 p"
b0 2#
b0 #"
b0 3"
b0 S"
b0 D
b0 T
b0 t
0]"
14#
1h"
0~
1U"
1+"
0A
1v
1L
12
bx0000000010 e"
bx0000000010 &#
bx0000000010 6#
bx0000000010 ("
bx0000000010 G"
bx0000000010 W"
bx0000000010 I
bx0000000010 h
bx0000000010 x
b1 f"
b1 t"
b1 ~"
1/
0["
0u"
b0 v"
b0 {"
b0 !#
b1 )"
b1 7"
b1 A"
10
0|
08"
b0 9"
b0 >"
b0 B"
b1 J
b1 X
b1 b
11
0?
0Y
b0 Z
b0 _
b0 c
bx00000 s"
bx00000 y"
bx00000 6"
bx00000 <"
bx00000 W
bx00000 ]
b11 .#
b11 O"
b11 p
b0 -#
b0 N"
b0 o
b10 r"
b10 x"
b10 5"
b10 ;"
b10 V
b10 \
b10 /#
b10 P"
b10 q
b100011 q"
b100011 z"
b100011 }"
b100011 4"
b100011 ="
b100011 @"
b100011 U
b100011 ^
b100011 a
bx000000001100000010000100100011 &
bx000000001100000010000100100011 B
bx000000001100000010000100100011 w
bx000000001100000010000100100011 !"
bx000000001100000010000100100011 V"
bx000000001100000010000100100011 ^"
bx000000001100000010000100100011 5#
bx000000001100000010000100100011 E#
b100110 F#
b110 H#
b100000 G#
bx000000000110000001001001001000010111 #
bx000000000110000001001001001000010111 :
bx000000000110000001001001001000010111 D#
b1100 .
b1100 ;
b1100 B#
b10000 b"
b10000 (#
b10000 ,#
b1100 +
b1100 a"
b1100 )#
b1100 *#
b1100 <#
b10000 %"
b10000 I"
b10000 M"
b1100 ,
b1100 $"
b1100 J"
b1100 K"
b1100 ;#
b10000 F
b10000 j
b10000 n
b1100 -
b1100 E
b1100 k
b1100 l
b1100 :#
1!
#500
0!
#550
bx j"
bx o"
bx w"
bx |"
bx -"
bx 2"
bx :"
bx ?"
bx N
bx S
bx [
bx `
bx Z"
bx n"
bx %#
bx {
bx 1"
bx F"
bx >
bx R
bx g
x]"
x4#
xh"
x~
xU"
x+"
xA
xv
xL
x2
bx `"
bx p"
bx 2#
bx #"
bx 3"
bx S"
bx D
bx T
bx t
bx e"
bx &#
bx 6#
bx ("
bx G"
bx W"
bx I
bx h
bx x
bx f"
bx t"
bx ~"
x/
x["
xu"
bx v"
bx {"
bx !#
bx )"
bx 7"
bx A"
x0
x|
x8"
bx 9"
bx >"
bx B"
bx J
bx X
bx b
x1
x?
xY
bx Z
bx _
bx c
bx s"
bx y"
bx 6"
bx <"
bx W
bx ]
bx .#
bx O"
bx p
bx -#
bx N"
bx o
bx r"
bx x"
bx 5"
bx ;"
bx V
bx \
bx /#
bx P"
bx q
bx q"
bx z"
bx }"
bx 4"
bx ="
bx @"
bx U
bx ^
bx a
bx &
bx B
bx w
bx !"
bx V"
bx ^"
bx 5#
bx E#
b100110 F#
b110 H#
b100000 G#
bx #
bx :
bx D#
b10000 .
b10000 ;
b10000 B#
b10100 F
b10100 j
b10100 n
b10000 -
b10000 E
b10000 k
b10000 l
b10000 :#
b10100 %"
b10100 I"
b10100 M"
b10000 ,
b10000 $"
b10000 J"
b10000 K"
b10000 ;#
b10100 b"
b10100 (#
b10100 ,#
b10000 +
b10000 a"
b10000 )#
b10000 *#
b10000 <#
1!
#600
0!
#650
b10100 .
b10100 ;
b10100 B#
b11000 b"
b11000 (#
b11000 ,#
b10100 +
b10100 a"
b10100 )#
b10100 *#
b10100 <#
b11000 %"
b11000 I"
b11000 M"
b10100 ,
b10100 $"
b10100 J"
b10100 K"
b10100 ;#
b11000 F
b11000 j
b11000 n
b10100 -
b10100 E
b10100 k
b10100 l
b10100 :#
1!
#700
0!
#750
b11000 .
b11000 ;
b11000 B#
b11100 F
b11100 j
b11100 n
b11000 -
b11000 E
b11000 k
b11000 l
b11000 :#
b11100 %"
b11100 I"
b11100 M"
b11000 ,
b11000 $"
b11000 J"
b11000 K"
b11000 ;#
b11100 b"
b11100 (#
b11100 ,#
b11000 +
b11000 a"
b11000 )#
b11000 *#
b11000 <#
1!
