RISCV_TMR/output/dumpfile.vcd
$date
	Thu May 04 02:37:33 2023
$end
$version
	Icarus Verilog
$end
$timescale
	1s
$end
$scope module Top_module_tb $end
$var reg 1 ! clk $end
$var reg 1 " rst $end
$scope module Top_module $end
$var wire 1 ! clk $end
$var wire 1 " rst $end
$var wire 2 # Voter_state [1:0] $end
$var wire 32 $ ReadData [31:0] $end
$var wire 32 % RD_Instr [31:0] $end
$var wire 32 & RD2_Top_C [31:0] $end
$var wire 32 ' RD2_Top_B [31:0] $end
$var wire 32 ( RD2_Top_A [31:0] $end
$var wire 32 ) RD2_Top [31:0] $end
$var wire 32 * PC_Top_C [31:0] $end
$var wire 32 + PC_Top_B [31:0] $end
$var wire 32 , PC_Top_A [31:0] $end
$var wire 32 - PC_Top [31:0] $end
$var wire 1 . MemWrite_C $end
$var wire 1 / MemWrite_B $end
$var wire 1 0 MemWrite_A $end
$var wire 1 1 MemWrite $end
$var wire 32 2 ALUResult_C [31:0] $end
$var wire 32 3 ALUResult_B [31:0] $end
$var wire 32 4 ALUResult_A [31:0] $end
$var wire 32 5 ALUResult [31:0] $end
$scope module Data_Memory $end
$var wire 1 ! clk $end
$var wire 1 " rst $end
$var wire 1 1 WE $end
$var wire 32 6 WD [31:0] $end
$var wire 32 7 RD [31:0] $end
$var wire 32 8 A [31:0] $end
$upscope $end
$scope module Instruction_Memory $end
$var wire 1 " rst $end
$var wire 32 9 RD [31:0] $end
$var wire 32 : A [31:0] $end
$upscope $end
$scope module Main_core_A $end
$var wire 32 ; RD_Instr [31:0] $end
$var wire 32 < ReadData [31:0] $end
$var wire 1 ! clk $end
$var wire 1 " rst $end
$var wire 1 = Zero $end
$var wire 32 > SrcB [31:0] $end
$var wire 1 ? ResultSrc $end
$var wire 32 @ Result [31:0] $end
$var wire 1 A RegWrite $end
$var wire 32 B RD2_Top [31:0] $end
$var wire 32 C RD1_Top [31:0] $end
$var wire 32 D PC_Top [31:0] $end
$var wire 32 E PCPlus4 [31:0] $end
$var wire 1 F OverFlow $end
$var wire 1 G Negative $end
$var wire 1 0 MemWrite $end
$var wire 32 H Imm_Ext_Top [31:0] $end
$var wire 2 I ImmSrc [1:0] $end
$var wire 1 J Carry $end
$var wire 1 K ALUSrc $end
$var wire 32 L ALUResult [31:0] $end
$var wire 3 M ALUControl_Top [2:0] $end
$scope module ALU $end
$var wire 1 J Carry $end
$var wire 1 F OverFlow $end
$var wire 1 = Zero $end
$var wire 33 N Sum [32:0] $end
$var wire 32 O Result [31:0] $end
$var wire 1 G Negative $end
$var wire 1 P Cout $end
$var wire 32 Q B [31:0] $end
$var wire 3 R ALUControl [2:0] $end
$var wire 32 S A [31:0] $end
$upscope $end
$scope module Control_Unit_Top $end
$var wire 7 T Op [6:0] $end
$var wire 3 U funct3 [2:0] $end
$var wire 7 V funct7 [6:0] $end
$var wire 1 ? ResultSrc $end
$var wire 1 A RegWrite $end
$var wire 1 0 MemWrite $end
$var wire 2 W ImmSrc [1:0] $end
$var wire 1 X Branch $end
$var wire 1 K ALUSrc $end
$var wire 2 Y ALUOp [1:0] $end
$var wire 3 Z ALUControl [2:0] $end
$scope module ALU_Decoder $end
$var wire 3 [ funct3 [2:0] $end
$var wire 7 \ funct7 [6:0] $end
$var wire 7 ] op [6:0] $end
$var wire 2 ^ ALUOp [1:0] $end
$var wire 3 _ ALUControl [2:0] $end
$upscope $end
$scope module Main_Decoder $end
$var wire 7 ` Op [6:0] $end
$var wire 1 ? ResultSrc $end
$var wire 1 A RegWrite $end
$var wire 1 0 MemWrite $end
$var wire 2 a ImmSrc [1:0] $end
$var wire 1 X Branch $end
$var wire 1 K ALUSrc $end
$var wire 2 b ALUOp [1:0] $end
$upscope $end
$upscope $end
$scope module Mux_DataMemory_to_Register $end
$var wire 32 c a [31:0] $end
$var wire 32 d b [31:0] $end
$var wire 1 ? s $end
$var wire 32 e c [31:0] $end
$upscope $end
$scope module Mux_Register_to_ALU $end
$var wire 1 K s $end
$var wire 32 f c [31:0] $end
$var wire 32 g b [31:0] $end
$var wire 32 h a [31:0] $end
$upscope $end
$scope module PC $end
$var wire 1 ! clk $end
$var wire 1 " rst $end
$var wire 32 i PC_Next [31:0] $end
$var reg 32 j PC [31:0] $end
$upscope $end
$scope module PC_Adder $end
$var wire 32 k a [31:0] $end
$var wire 32 l b [31:0] $end
$var wire 32 m c [31:0] $end
$upscope $end
$scope module Register_File $end
$var wire 5 n A1 [4:0] $end
$var wire 5 o A2 [4:0] $end
$var wire 5 p A3 [4:0] $end
$var wire 32 q WD3 [31:0] $end
$var wire 1 A WE3 $end
$var wire 1 ! clk $end
$var wire 1 " rst $end
$var wire 32 r RD2 [31:0] $end
$var wire 32 s RD1 [31:0] $end
$var integer 32 t i [31:0] $end
$upscope $end
$scope module Sign_Extend $end
$var wire 1 u ImmSrc $end
$var wire 32 v In [31:0] $end
$var wire 32 w Imm_Ext [31:0] $end
$upscope $end
$upscope $end
$scope module Main_core_B $end
$var wire 32 x RD_Instr [31:0] $end
$var wire 32 y ReadData [31:0] $end
$var wire 1 ! clk $end
$var wire 1 " rst $end
$var wire 1 z Zero $end
$var wire 32 { SrcB [31:0] $end
$var wire 1 | ResultSrc $end
$var wire 32 } Result [31:0] $end
$var wire 1 ~ RegWrite $end
$var wire 32 !" RD2_Top [31:0] $end
$var wire 32 "" RD1_Top [31:0] $end
$var wire 32 #" PC_Top [31:0] $end
$var wire 32 $" PCPlus4 [31:0] $end
$var wire 1 %" OverFlow $end
$var wire 1 &" Negative $end
$var wire 1 / MemWrite $end
$var wire 32 '" Imm_Ext_Top [31:0] $end
$var wire 2 (" ImmSrc [1:0] $end
$var wire 1 )" Carry $end
$var wire 1 *" ALUSrc $end
$var wire 32 +" ALUResult [31:0] $end
$var wire 3 ," ALUControl_Top [2:0] $end
$scope module ALU $end
$var wire 1 )" Carry $end
$var wire 1 %" OverFlow $end
$var wire 1 z Zero $end
$var wire 33 -" Sum [32:0] $end
$var wire 32 ." Result [31:0] $end
$var wire 1 &" Negative $end
$var wire 1 /" Cout $end
$var wire 32 0" B [31:0] $end
$var wire 3 1" ALUControl [2:0] $end
$var wire 32 2" A [31:0] $end
$upscope $end
$scope module Control_Unit_Top $end
$var wire 7 3" Op [6:0] $end
$var wire 3 4" funct3 [2:0] $end
$var wire 7 5" funct7 [6:0] $end
$var wire 1 | ResultSrc $end
$var wire 1 ~ RegWrite $end
$var wire 1 / MemWrite $end
$var wire 2 6" ImmSrc [1:0] $end
$var wire 1 7" Branch $end
$var wire 1 *" ALUSrc $end
$var wire 2 8" ALUOp [1:0] $end
$var wire 3 9" ALUControl [2:0] $end
$scope module ALU_Decoder $end
$var wire 3 :" funct3 [2:0] $end
$var wire 7 ;" funct7 [6:0] $end
$var wire 7 <" op [6:0] $end
$var wire 2 =" ALUOp [1:0] $end
$var wire 3 >" ALUControl [2:0] $end
$upscope $end
$scope module Main_Decoder $end
$var wire 7 ?" Op [6:0] $end
$var wire 1 | ResultSrc $end
$var wire 1 ~ RegWrite $end
$var wire 1 / MemWrite $end
$var wire 2 @" ImmSrc [1:0] $end
$var wire 1 7" Branch $end
$var wire 1 *" ALUSrc $end
$var wire 2 A" ALUOp [1:0] $end
$upscope $end
$upscope $end
$scope module Mux_DataMemory_to_Register $end
$var wire 32 B" a [31:0] $end
$var wire 32 C" b [31:0] $end
$var wire 1 | s $end
$var wire 32 D" c [31:0] $end
$upscope $end
$scope module Mux_Register_to_ALU $end
$var wire 1 *" s $end
$var wire 32 E" c [31:0] $end
$var wire 32 F" b [31:0] $end
$var wire 32 G" a [31:0] $end
$upscope $end
$scope module PC $end
$var wire 1 ! clk $end
$var wire 1 " rst $end
$var wire 32 H" PC_Next [31:0] $end
$var reg 32 I" PC [31:0] $end
$upscope $end
$scope module PC_Adder $end
$var wire 32 J" a [31:0] $end
$var wire 32 K" b [31:0] $end
$var wire 32 L" c [31:0] $end
$upscope $end
$scope module Register_File $end
$var wire 5 M" A1 [4:0] $end
$var wire 5 N" A2 [4:0] $end
$var wire 5 O" A3 [4:0] $end
$var wire 32 P" WD3 [31:0] $end
$var wire 1 ~ WE3 $end
$var wire 1 ! clk $end
$var wire 1 " rst $end
$var wire 32 Q" RD2 [31:0] $end
$var wire 32 R" RD1 [31:0] $end
$var integer 32 S" i [31:0] $end
$upscope $end
$scope module Sign_Extend $end
$var wire 1 T" ImmSrc $end
$var wire 32 U" In [31:0] $end
$var wire 32 V" Imm_Ext [31:0] $end
$upscope $end
$upscope $end
$scope module Main_core_C $end
$var wire 32 W" RD_Instr [31:0] $end
$var wire 32 X" ReadData [31:0] $end
$var wire 1 ! clk $end
$var wire 1 " rst $end
$var wire 1 Y" Zero $end
$var wire 32 Z" SrcB [31:0] $end
$var wire 1 [" ResultSrc $end
$var wire 32 \" Result [31:0] $end
$var wire 1 ]" RegWrite $end
$var wire 32 ^" RD2_Top [31:0] $end
$var wire 32 _" RD1_Top [31:0] $end
$var wire 32 `" PC_Top [31:0] $end
$var wire 32 a" PCPlus4 [31:0] $end
$var wire 1 b" OverFlow $end
$var wire 1 c" Negative $end
$var wire 1 . MemWrite $end
$var wire 32 d" Imm_Ext_Top [31:0] $end
$var wire 2 e" ImmSrc [1:0] $end
$var wire 1 f" Carry $end
$var wire 1 g" ALUSrc $end
$var wire 32 h" ALUResult [31:0] $end
$var wire 3 i" ALUControl_Top [2:0] $end
$scope module ALU $end
$var wire 1 f" Carry $end
$var wire 1 b" OverFlow $end
$var wire 1 Y" Zero $end
$var wire 33 j" Sum [32:0] $end
$var wire 32 k" Result [31:0] $end
$var wire 1 c" Negative $end
$var wire 1 l" Cout $end
$var wire 32 m" B [31:0] $end
$var wire 3 n" ALUControl [2:0] $end
$var wire 32 o" A [31:0] $end
$upscope $end
$scope module Control_Unit_Top $end
$var wire 7 p" Op [6:0] $end
$var wire 3 q" funct3 [2:0] $end
$var wire 7 r" funct7 [6:0] $end
$var wire 1 [" ResultSrc $end
$var wire 1 ]" RegWrite $end
$var wire 1 . MemWrite $end
$var wire 2 s" ImmSrc [1:0] $end
$var wire 1 t" Branch $end
$var wire 1 g" ALUSrc $end
$var wire 2 u" ALUOp [1:0] $end
$var wire 3 v" ALUControl [2:0] $end
$scope module ALU_Decoder $end
$var wire 3 w" funct3 [2:0] $end
$var wire 7 x" funct7 [6:0] $end
$var wire 7 y" op [6:0] $end
$var wire 2 z" ALUOp [1:0] $end
$var wire 3 {" ALUControl [2:0] $end
$upscope $end
$scope module Main_Decoder $end
$var wire 7 |" Op [6:0] $end
$var wire 1 [" ResultSrc $end
$var wire 1 ]" RegWrite $end
$var wire 1 . MemWrite $end
$var wire 2 }" ImmSrc [1:0] $end
$var wire 1 t" Branch $end
$var wire 1 g" ALUSrc $end
$var wire 2 ~" ALUOp [1:0] $end
$upscope $end
$upscope $end
$scope module Mux_DataMemory_to_Register $end
$var wire 32 !# a [31:0] $end
$var wire 32 "# b [31:0] $end
$var wire 1 [" s $end
$var wire 32 ## c [31:0] $end
$upscope $end
$scope module Mux_Register_to_ALU $end
$var wire 1 g" s $end
$var wire 32 $# c [31:0] $end
$var wire 32 %# b [31:0] $end
$var wire 32 &# a [31:0] $end
$upscope $end
$scope module PC $end
$var wire 1 ! clk $end
$var wire 1 " rst $end
$var wire 32 '# PC_Next [31:0] $end
$var reg 32 (# PC [31:0] $end
$upscope $end
$scope module PC_Adder $end
$var wire 32 )# a [31:0] $end
$var wire 32 *# b [31:0] $end
$var wire 32 +# c [31:0] $end
$upscope $end
$scope module Register_File $end
$var wire 5 ,# A1 [4:0] $end
$var wire 5 -# A2 [4:0] $end
$var wire 5 .# A3 [4:0] $end
$var wire 32 /# WD3 [31:0] $end
$var wire 1 ]" WE3 $end
$var wire 1 ! clk $end
$var wire 1 " rst $end
$var wire 32 0# RD2 [31:0] $end
$var wire 32 1# RD1 [31:0] $end
$var integer 32 2# i [31:0] $end
$upscope $end
$scope module Sign_Extend $end
$var wire 1 3# ImmSrc $end
$var wire 32 4# In [31:0] $end
$var wire 32 5# Imm_Ext [31:0] $end
$upscope $end
$upscope $end
$scope module Voter $end
$var wire 32 6# ALUResult_A [31:0] $end
$var wire 32 7# ALUResult_B [31:0] $end
$var wire 32 8# ALUResult_C [31:0] $end
$var wire 1 0 MemWrite_A $end
$var wire 1 / MemWrite_B $end
$var wire 1 . MemWrite_C $end
$var wire 32 9# PC_Top_A [31:0] $end
$var wire 32 :# PC_Top_B [31:0] $end
$var wire 32 ;# PC_Top_C [31:0] $end
$var wire 32 <# RD2_Top_A [31:0] $end
$var wire 32 =# RD2_Top_B [31:0] $end
$var wire 32 ># RD2_Top_C [31:0] $end
$var wire 1 " rst $end
$var wire 3 ?# Voter_state [2:0] $end
$var wire 32 @# RD2_Top [31:0] $end
$var wire 32 A# PC_Top [31:0] $end
$var wire 1 1 MemWrite $end
$var wire 32 B# ALUResult [31:0] $end
$upscope $end
$upscope $end
$upscope $end
$enddefinitions $end
$comment Show the parameter values. $end
$dumpall
$end
#0
$dumpvars
b0 B#
bx A#
b0 @#
b0x ?#
b0 >#
b0 =#
b0 <#
bx ;#
bx :#
bx 9#
b0 8#
b0 7#
b0 6#
b0 5#
b0 4#
03#
b100000 2#
b0 1#
b0 0#
b0 /#
b0 .#
b0 -#
b0 ,#
bx +#
b100 *#
bx )#
bx (#
bx '#
b0 &#
b0 %#
b0 $#
b0 ##
b0 "#
b0 !#
b0 ~"
b0 }"
b0 |"
b0 {"
b0 z"
b0 y"
b0 x"
b0 w"
b0 v"
b0 u"
0t"
b0 s"
b0 r"
b0 q"
b0 p"
b0 o"
b0 n"
b0 m"
0l"
b0 k"
b0 j"
b0 i"
b0 h"
0g"
0f"
b0 e"
b0 d"
0c"
0b"
bx a"
bx `"
b0 _"
b0 ^"
0]"
b0 \"
0["
b0 Z"
1Y"
b0 X"
b0 W"
b0 V"
b0 U"
0T"
b100000 S"
b0 R"
b0 Q"
b0 P"
b0 O"
b0 N"
b0 M"
bx L"
b100 K"
bx J"
bx I"
bx H"
b0 G"
b0 F"
b0 E"
b0 D"
b0 C"
b0 B"
b0 A"
b0 @"
b0 ?"
b0 >"
b0 ="
b0 <"
b0 ;"
b0 :"
b0 9"
b0 8"
07"
b0 6"
b0 5"
b0 4"
b0 3"
b0 2"
b0 1"
b0 0"
0/"
b0 ."
b0 -"
b0 ,"
b0 +"
0*"
0)"
b0 ("
b0 '"
0&"
0%"
bx $"
bx #"
b0 ""
b0 !"
0~
b0 }
0|
b0 {
1z
b0 y
b0 x
b0 w
b0 v
0u
b100000 t
b0 s
b0 r
b0 q
b0 p
b0 o
b0 n
bx m
b100 l
bx k
bx j
bx i
b0 h
b0 g
b0 f
b0 e
b0 d
b0 c
b0 b
b0 a
b0 `
b0 _
b0 ^
b0 ]
b0 \
b0 [
b0 Z
b0 Y
0X
b0 W
b0 V
b0 U
b0 T
b0 S
b0 R
b0 Q
0P
b0 O
b0 N
b0 M
b0 L
0K
0J
b0 I
b0 H
0G
0F
bx E
bx D
b0 C
b0 B
0A
b0 @
0?
b0 >
1=
b0 <
b0 ;
bx :
b0 9
b0 8
b0 7
b0 6
b0 5
b0 4
b0 3
b0 2
01
00
0/
0.
bx -
bx ,
bx +
bx *
b0 )
b0 (
b0 '
b0 &
b0 %
b0 $
b0x #
0"
0!
$end
#50
b1 #
b1 ?#
b0 -
b0 :
b0 A#
b100 a"
b100 '#
b100 +#
b0 *
b0 `"
b0 (#
b0 )#
b0 ;#
b100 $"
b100 H"
b100 L"
b0 +
b0 #"
b0 I"
b0 J"
b0 :#
b100 E
b100 i
b100 m
b0 ,
b0 D
b0 j
b0 k
b0 9#
1!
#100
0!
#150
b11111111111111111111111111111111 @
b11111111111111111111111111111111 e
b11111111111111111111111111111111 q
b11111111111111111111111111111111 }
b11111111111111111111111111111111 D"
b11111111111111111111111111111111 P"
b11111111111111111111111111111111 \"
b11111111111111111111111111111111 ##
b11111111111111111111111111111111 /#
1A
1K
1~
1*"
1]"
1g"
1?
1|
1["
b1 p
b11 T
b11 ]
b11 `
b10 U
b10 [
b1 O"
b11 3"
b11 <"
b11 ?"
b10 4"
b10 :"
b1 .#
b11 p"
b11 y"
b11 |"
b10 q"
b10 w"
b11111111111111111111111111111111 $
b11111111111111111111111111111111 7
b11111111111111111111111111111111 <
b11111111111111111111111111111111 d
b11111111111111111111111111111111 y
b11111111111111111111111111111111 C"
b11111111111111111111111111111111 X"
b11111111111111111111111111111111 "#
b10000010000011 %
b10000010000011 9
b10000010000011 ;
b10000010000011 v
b10000010000011 x
b10000010000011 U"
b10000010000011 W"
b10000010000011 4#
1"
1!
#200
0!
#250
b1111 @
b1111 e
b1111 q
b1111 }
b1111 D"
b1111 P"
b1111 \"
b1111 ##
b1111 /#
b1111 $
b1111 7
b1111 <
b1111 d
b1111 y
b1111 C"
b1111 X"
b1111 "#
b1 5
b1 8
b1 B#
0=
0z
0Y"
b1 4
b1 L
b1 O
b1 c
b1 6#
b1 3
b1 +"
b1 ."
b1 B"
b1 7#
b1 2
b1 h"
b1 k"
b1 !#
b1 8#
b1 N
b1 -"
b1 j"
b11111111111111111111111111111111 )
b11111111111111111111111111111111 6
b11111111111111111111111111111111 @#
b1 >
b1 Q
b1 f
b1 {
b1 0"
b1 E"
b1 Z"
b1 m"
b1 $#
b11111111111111111111111111111111 (
b11111111111111111111111111111111 B
b11111111111111111111111111111111 h
b11111111111111111111111111111111 r
b11111111111111111111111111111111 <#
b1 H
b1 g
b1 w
b11111111111111111111111111111111 '
b11111111111111111111111111111111 !"
b11111111111111111111111111111111 G"
b11111111111111111111111111111111 Q"
b11111111111111111111111111111111 =#
b1 '"
b1 F"
b1 V"
b11111111111111111111111111111111 &
b11111111111111111111111111111111 ^"
b11111111111111111111111111111111 &#
b11111111111111111111111111111111 0#
b11111111111111111111111111111111 >#
b1 d"
b1 %#
b1 5#
b1 o
b10 p
b1 N"
b10 O"
b1 -#
b10 .#
b100000010000100000011 %
b100000010000100000011 9
b100000010000100000011 ;
b100000010000100000011 v
b100000010000100000011 x
b100000010000100000011 U"
b100000010000100000011 W"
b100000010000100000011 4#
b100 -
b100 :
b100 A#
b1000 a"
b1000 '#
b1000 +#
b100 *
b100 `"
b100 (#
b100 )#
b100 ;#
b1000 $"
b1000 H"
b1000 L"
b100 +
b100 #"
b100 I"
b100 J"
b100 :#
b1000 E
b1000 i
b1000 m
b100 ,
b100 D
b100 j
b100 k
b100 9#
1!
#300
0!
#350
b0 $
b0 7
b0 <
b0 d
b0 y
b0 C"
b0 X"
b0 "#
b1110 5
b1110 8
b1110 B#
b1110 4
b1110 L
b1110 O
b1110 c
b1110 6#
b1110 3
b1110 +"
b1110 ."
b1110 B"
b1110 7#
b1110 2
b1110 h"
b1110 k"
b1110 !#
b1110 8#
0F
1J
0%"
1)"
0b"
1f"
1P
1/"
1l"
b1110 @
b1110 e
b1110 q
b1110 }
b1110 D"
b1110 P"
b1110 \"
b1110 ##
b1110 /#
b100000000000000000000000000001110 N
b1111 )
b1111 6
b1111 @#
0K
b1111 >
b1111 Q
b1111 f
b100000000000000000000000000001110 -"
0*"
b1111 {
b1111 0"
b1111 E"
b100000000000000000000000000001110 j"
0g"
b1111 Z"
b1111 m"
b1111 $#
b11111111111111111111111111111111 C
b11111111111111111111111111111111 S
b11111111111111111111111111111111 s
b1111 (
b1111 B
b1111 h
b1111 r
b1111 <#
0?
b10 Y
b10 ^
b10 b
b10 H
b10 g
b10 w
b11111111111111111111111111111111 ""
b11111111111111111111111111111111 2"
b11111111111111111111111111111111 R"
b1111 '
b1111 !"
b1111 G"
b1111 Q"
b1111 =#
0|
b10 8"
b10 ="
b10 A"
b10 '"
b10 F"
b10 V"
b11111111111111111111111111111111 _"
b11111111111111111111111111111111 o"
b11111111111111111111111111111111 1#
b1111 &
b1111 ^"
b1111 &#
b1111 0#
b1111 >#
0["
b10 u"
b10 z"
b10 ~"
b10 d"
b10 %#
b10 5#
b1 n
b10 o
b11 p
b110011 T
b110011 ]
b110011 `
b0 U
b0 [
b1 M"
b10 N"
b11 O"
b110011 3"
b110011 <"
b110011 ?"
b0 4"
b0 :"
b1 ,#
b10 -#
b11 .#
b110011 p"
b110011 y"
b110011 |"
b0 q"
b0 w"
b1000001000000110110011 %
b1000001000000110110011 9
b1000001000000110110011 ;
b1000001000000110110011 v
b1000001000000110110011 x
b1000001000000110110011 U"
b1000001000000110110011 W"
b1000001000000110110011 4#
b1000 -
b1000 :
b1000 A#
b1100 E
b1100 i
b1100 m
b1000 ,
b1000 D
b1000 j
b1000 k
b1000 9#
b1100 $"
b1100 H"
b1100 L"
b1000 +
b1000 #"
b1000 I"
b1000 J"
b1000 :#
b1100 a"
b1100 '#
b1100 +#
b1000 *
b1000 `"
b1000 (#
b1000 )#
b1000 ;#
1!
#400
0!
#450
b10101011110011011110111110101011 $
b10101011110011011110111110101011 7
b10101011110011011110111110101011 <
b10101011110011011110111110101011 d
b10101011110011011110111110101011 y
b10101011110011011110111110101011 C"
b10101011110011011110111110101011 X"
b10101011110011011110111110101011 "#
b10 @
b10 e
b10 q
b10 5
b10 8
b10 B#
b10 }
b10 D"
b10 P"
b10 \"
b10 ##
b10 /#
b10 4
b10 L
b10 O
b10 c
b10 6#
b10 3
b10 +"
b10 ."
b10 B"
b10 7#
b10 2
b10 h"
b10 k"
b10 !#
b10 8#
0J
0)"
0f"
0P
0/"
0l"
b10 N
b1110 )
b1110 6
b1110 @#
b10 >
b10 Q
b10 f
0A
1u
1K
11
b10 -"
b10 {
b10 0"
b10 E"
0~
1T"
1*"
b10 j"
b10 Z"
b10 m"
b10 $#
0]"
13#
1g"
b0 C
b0 S
b0 s
b1110 (
b1110 B
b1110 h
b1110 r
b1110 <#
b1 I
b1 W
b1 a
10
b0 Y
b0 ^
b0 b
b10 H
b10 g
b10 w
b0 ""
b0 2"
b0 R"
b1110 '
b1110 !"
b1110 G"
b1110 Q"
b1110 =#
b1 ("
b1 6"
b1 @"
1/
b0 8"
b0 ="
b0 A"
b10 '"
b10 F"
b10 V"
b0 _"
b0 o"
b0 1#
b1110 &
b1110 ^"
b1110 &#
b1110 0#
b1110 >#
b1 e"
b1 s"
b1 }"
1.
b0 u"
b0 z"
b0 ~"
b10 d"
b10 %#
b10 5#
b0 n
b11 o
b10 p
b100011 T
b100011 ]
b100011 `
b10 U
b10 [
b0 M"
b11 N"
b10 O"
b100011 3"
b100011 <"
b100011 ?"
b10 4"
b10 :"
b0 ,#
b11 -#
b10 .#
b100011 p"
b100011 y"
b100011 |"
b10 q"
b10 w"
b1100000010000100100011 %
b1100000010000100100011 9
b1100000010000100100011 ;
b1100000010000100100011 v
b1100000010000100100011 x
b1100000010000100100011 U"
b1100000010000100100011 W"
b1100000010000100100011 4#
b1100 -
b1100 :
b1100 A#
b10000 a"
b10000 '#
b10000 +#
b1100 *
b1100 `"
b1100 (#
b1100 )#
b1100 ;#
b10000 $"
b10000 H"
b10000 L"
b1100 +
b1100 #"
b1100 I"
b1100 J"
b1100 :#
b10000 E
b10000 i
b10000 m
b1100 ,
b1100 D
b1100 j
b1100 k
b1100 9#
1!
#500
0!
#550
xF
xG
x=
xJ
x%"
x&"
xz
x)"
bx 5
bx 8
bx B#
xb"
xc"
xY"
xf"
bx 4
bx L
bx O
bx c
bx 6#
xP
bx 3
bx +"
bx ."
bx B"
bx 7#
x/"
b0x #
bx 2
bx h"
bx k"
bx !#
bx 8#
xl"
bx @
bx e
bx q
bx M
bx R
bx Z
bx _
b0x ?#
bx }
bx D"
bx P"
bx ,"
bx 1"
bx 9"
bx >"
bx \"
bx ##
bx /#
bx i"
bx n"
bx v"
bx {"
bx N
bx )
bx 6
bx @#
xA
xu
xK
x1
bx >
bx Q
bx f
bx -"
x~
xT"
x*"
bx {
bx 0"
bx E"
bx j"
x]"
x3#
xg"
bx Z"
bx m"
bx $#
bx C
bx S
bx s
bx (
bx B
bx h
bx r
bx <#
bx I
bx W
bx a
x0
x?
xX
bx Y
bx ^
bx b
bx H
bx g
bx w
bx ""
bx 2"
bx R"
bx '
bx !"
bx G"
bx Q"
bx =#
bx ("
bx 6"
bx @"
x/
x|
x7"
bx 8"
bx ="
bx A"
bx '"
bx F"
bx V"
bx _"
bx o"
bx 1#
bx &
bx ^"
bx &#
bx 0#
bx >#
bx e"
bx s"
bx }"
x.
x["
xt"
bx u"
bx z"
bx ~"
bx d"
bx %#
bx 5#
bx n
bx o
bx p
bx T
bx ]
bx `
bx U
bx [
bx V
bx \
bx M"
bx N"
bx O"
bx 3"
bx <"
bx ?"
bx 4"
bx :"
bx 5"
bx ;"
bx ,#
bx -#
bx .#
bx p"
bx y"
bx |"
bx q"
bx w"
bx r"
bx x"
bx %
bx 9
bx ;
bx v
bx x
bx U"
bx W"
bx 4#
b10000 -
b10000 :
b10000 A#
bx $
bx 7
bx <
bx d
bx y
bx C"
bx X"
bx "#
b10100 E
b10100 i
b10100 m
b10000 ,
b10000 D
b10000 j
b10000 k
b10000 9#
b10100 $"
b10100 H"
b10100 L"
b10000 +
b10000 #"
b10000 I"
b10000 J"
b10000 :#
b10100 a"
b10100 '#
b10100 +#
b10000 *
b10000 `"
b10000 (#
b10000 )#
b10000 ;#
1!
#600
0!
#650
b10100 -
b10100 :
b10100 A#
b11000 a"
b11000 '#
b11000 +#
b10100 *
b10100 `"
b10100 (#
b10100 )#
b10100 ;#
b11000 $"
b11000 H"
b11000 L"
b10100 +
b10100 #"
b10100 I"
b10100 J"
b10100 :#
b11000 E
b11000 i
b11000 m
b10100 ,
b10100 D
b10100 j
b10100 k
b10100 9#
1!
#700
0!
#750
b11000 -
b11000 :
b11000 A#
b11100 E
b11100 i
b11100 m
b11000 ,
b11000 D
b11000 j
b11000 k
b11000 9#
b11100 $"
b11100 H"
b11100 L"
b11000 +
b11000 #"
b11000 I"
b11000 J"
b11000 :#
b11100 a"
b11100 '#
b11100 +#
b11000 *
b11000 `"
b11000 (#
b11000 )#
b11000 ;#
1!
