RISCV_TMR/output/dumpfile.vcd
$date
	Fri May 05 15:44:20 2023
$end
$version
	Icarus Verilog
$end
$timescale
	1s
$end
$scope module Top_module_tb $end
$var reg 1 ! clk $end
$var reg 1 " main_rst $end
$scope module Top_module $end
$var wire 1 ! clk $end
$var wire 1 " main_rst $end
$var wire 1 # rst_in $end
$var wire 1 $ core_hold $end
$var wire 3 % Voter_state [2:0] $end
$var wire 32 & ReadData [31:0] $end
$var wire 32 ' RD_Instr [31:0] $end
$var wire 32 ( RD2_Top_C [31:0] $end
$var wire 32 ) RD2_Top_B [31:0] $end
$var wire 32 * RD2_Top_A [31:0] $end
$var wire 32 + RD2_Top [31:0] $end
$var wire 32 , PC_Top_C [31:0] $end
$var wire 32 - PC_Top_B [31:0] $end
$var wire 32 . PC_Top_A [31:0] $end
$var wire 32 / PC_Top [31:0] $end
$var wire 1 0 MemWrite_C $end
$var wire 1 1 MemWrite_B $end
$var wire 1 2 MemWrite_A $end
$var wire 1 3 MemWrite $end
$var wire 32 4 ALUResult_C [31:0] $end
$var wire 32 5 ALUResult_B [31:0] $end
$var wire 32 6 ALUResult_A [31:0] $end
$var wire 32 7 ALUResult [31:0] $end
$scope module Data_Memory $end
$var wire 1 ! clk $end
$var wire 1 # rst_in $end
$var wire 1 3 WE $end
$var wire 32 8 WD [31:0] $end
$var wire 32 9 RD [31:0] $end
$var wire 32 : A [31:0] $end
$upscope $end
$scope module Instruction_Memory $end
$var wire 1 # rst_in $end
$var wire 32 ; RD [31:0] $end
$var wire 32 < A [31:0] $end
$upscope $end
$scope module Lockstep $end
$var wire 1 $ core_hold $end
$var wire 3 = Voter_state [2:0] $end
$upscope $end
$scope module Main_core_A $end
$var wire 32 > RD_Instr [31:0] $end
$var wire 32 ? ReadData [31:0] $end
$var wire 1 ! clk $end
$var wire 1 # rst_in $end
$var wire 1 @ Zero $end
$var wire 32 A SrcB [31:0] $end
$var wire 1 B ResultSrc $end
$var wire 32 C Result [31:0] $end
$var wire 1 D RegWrite $end
$var wire 32 E RD2_Top [31:0] $end
$var wire 32 F RD1_Top [31:0] $end
$var wire 32 G PC_Top [31:0] $end
$var wire 32 H PCPlus4 [31:0] $end
$var wire 1 I OverFlow $end
$var wire 1 J Negative $end
$var wire 1 2 MemWrite $end
$var wire 32 K Imm_Ext_Top [31:0] $end
$var wire 2 L ImmSrc [1:0] $end
$var wire 1 M Carry $end
$var wire 1 N ALUSrc $end
$var wire 32 O ALUResult [31:0] $end
$var wire 3 P ALUControl_Top [2:0] $end
$scope module ALU $end
$var wire 1 M Carry $end
$var wire 1 I OverFlow $end
$var wire 1 @ Zero $end
$var wire 33 Q Sum [32:0] $end
$var wire 32 R Result [31:0] $end
$var wire 1 J Negative $end
$var wire 1 S Cout $end
$var wire 32 T B [31:0] $end
$var wire 3 U ALUControl [2:0] $end
$var wire 32 V A [31:0] $end
$upscope $end
$scope module Control_Unit_Top $end
$var wire 7 W Op [6:0] $end
$var wire 3 X funct3 [2:0] $end
$var wire 7 Y funct7 [6:0] $end
$var wire 1 B ResultSrc $end
$var wire 1 D RegWrite $end
$var wire 1 2 MemWrite $end
$var wire 2 Z ImmSrc [1:0] $end
$var wire 1 [ Branch $end
$var wire 1 N ALUSrc $end
$var wire 2 \ ALUOp [1:0] $end
$var wire 3 ] ALUControl [2:0] $end
$scope module ALU_Decoder $end
$var wire 3 ^ funct3 [2:0] $end
$var wire 7 _ funct7 [6:0] $end
$var wire 7 ` op [6:0] $end
$var wire 2 a ALUOp [1:0] $end
$var wire 3 b ALUControl [2:0] $end
$upscope $end
$scope module Main_Decoder $end
$var wire 7 c Op [6:0] $end
$var wire 1 B ResultSrc $end
$var wire 1 D RegWrite $end
$var wire 1 2 MemWrite $end
$var wire 2 d ImmSrc [1:0] $end
$var wire 1 [ Branch $end
$var wire 1 N ALUSrc $end
$var wire 2 e ALUOp [1:0] $end
$upscope $end
$upscope $end
$scope module Mux_DataMemory_to_Register $end
$var wire 32 f a [31:0] $end
$var wire 32 g b [31:0] $end
$var wire 1 B s $end
$var wire 32 h c [31:0] $end
$upscope $end
$scope module Mux_Register_to_ALU $end
$var wire 1 N s $end
$var wire 32 i c [31:0] $end
$var wire 32 j b [31:0] $end
$var wire 32 k a [31:0] $end
$upscope $end
$scope module PC $end
$var wire 1 ! clk $end
$var wire 1 # rst_in $end
$var wire 32 l PC_Next [31:0] $end
$var reg 32 m PC [31:0] $end
$upscope $end
$scope module PC_Adder $end
$var wire 32 n a [31:0] $end
$var wire 32 o b [31:0] $end
$var wire 32 p c [31:0] $end
$upscope $end
$scope module Register_File $end
$var wire 5 q A1 [4:0] $end
$var wire 5 r A2 [4:0] $end
$var wire 5 s A3 [4:0] $end
$var wire 32 t WD3 [31:0] $end
$var wire 1 D WE3 $end
$var wire 1 ! clk $end
$var wire 1 # rst_in $end
$var wire 32 u RD2 [31:0] $end
$var wire 32 v RD1 [31:0] $end
$var integer 32 w i [31:0] $end
$upscope $end
$scope module Sign_Extend $end
$var wire 1 x ImmSrc $end
$var wire 32 y In [31:0] $end
$var wire 32 z Imm_Ext [31:0] $end
$upscope $end
$upscope $end
$scope module Main_core_B $end
$var wire 32 { RD_Instr [31:0] $end
$var wire 32 | ReadData [31:0] $end
$var wire 1 ! clk $end
$var wire 1 # rst_in $end
$var wire 1 } Zero $end
$var wire 32 ~ SrcB [31:0] $end
$var wire 1 !" ResultSrc $end
$var wire 32 "" Result [31:0] $end
$var wire 1 #" RegWrite $end
$var wire 32 $" RD2_Top [31:0] $end
$var wire 32 %" RD1_Top [31:0] $end
$var wire 32 &" PC_Top [31:0] $end
$var wire 32 '" PCPlus4 [31:0] $end
$var wire 1 (" OverFlow $end
$var wire 1 )" Negative $end
$var wire 1 1 MemWrite $end
$var wire 32 *" Imm_Ext_Top [31:0] $end
$var wire 2 +" ImmSrc [1:0] $end
$var wire 1 ," Carry $end
$var wire 1 -" ALUSrc $end
$var wire 32 ." ALUResult [31:0] $end
$var wire 3 /" ALUControl_Top [2:0] $end
$scope module ALU $end
$var wire 1 ," Carry $end
$var wire 1 (" OverFlow $end
$var wire 1 } Zero $end
$var wire 33 0" Sum [32:0] $end
$var wire 32 1" Result [31:0] $end
$var wire 1 )" Negative $end
$var wire 1 2" Cout $end
$var wire 32 3" B [31:0] $end
$var wire 3 4" ALUControl [2:0] $end
$var wire 32 5" A [31:0] $end
$upscope $end
$scope module Control_Unit_Top $end
$var wire 7 6" Op [6:0] $end
$var wire 3 7" funct3 [2:0] $end
$var wire 7 8" funct7 [6:0] $end
$var wire 1 !" ResultSrc $end
$var wire 1 #" RegWrite $end
$var wire 1 1 MemWrite $end
$var wire 2 9" ImmSrc [1:0] $end
$var wire 1 :" Branch $end
$var wire 1 -" ALUSrc $end
$var wire 2 ;" ALUOp [1:0] $end
$var wire 3 <" ALUControl [2:0] $end
$scope module ALU_Decoder $end
$var wire 3 =" funct3 [2:0] $end
$var wire 7 >" funct7 [6:0] $end
$var wire 7 ?" op [6:0] $end
$var wire 2 @" ALUOp [1:0] $end
$var wire 3 A" ALUControl [2:0] $end
$upscope $end
$scope module Main_Decoder $end
$var wire 7 B" Op [6:0] $end
$var wire 1 !" ResultSrc $end
$var wire 1 #" RegWrite $end
$var wire 1 1 MemWrite $end
$var wire 2 C" ImmSrc [1:0] $end
$var wire 1 :" Branch $end
$var wire 1 -" ALUSrc $end
$var wire 2 D" ALUOp [1:0] $end
$upscope $end
$upscope $end
$scope module Mux_DataMemory_to_Register $end
$var wire 32 E" a [31:0] $end
$var wire 32 F" b [31:0] $end
$var wire 1 !" s $end
$var wire 32 G" c [31:0] $end
$upscope $end
$scope module Mux_Register_to_ALU $end
$var wire 1 -" s $end
$var wire 32 H" c [31:0] $end
$var wire 32 I" b [31:0] $end
$var wire 32 J" a [31:0] $end
$upscope $end
$scope module PC $end
$var wire 1 ! clk $end
$var wire 1 # rst_in $end
$var wire 32 K" PC_Next [31:0] $end
$var reg 32 L" PC [31:0] $end
$upscope $end
$scope module PC_Adder $end
$var wire 32 M" a [31:0] $end
$var wire 32 N" b [31:0] $end
$var wire 32 O" c [31:0] $end
$upscope $end
$scope module Register_File $end
$var wire 5 P" A1 [4:0] $end
$var wire 5 Q" A2 [4:0] $end
$var wire 5 R" A3 [4:0] $end
$var wire 32 S" WD3 [31:0] $end
$var wire 1 #" WE3 $end
$var wire 1 ! clk $end
$var wire 1 # rst_in $end
$var wire 32 T" RD2 [31:0] $end
$var wire 32 U" RD1 [31:0] $end
$var integer 32 V" i [31:0] $end
$upscope $end
$scope module Sign_Extend $end
$var wire 1 W" ImmSrc $end
$var wire 32 X" In [31:0] $end
$var wire 32 Y" Imm_Ext [31:0] $end
$upscope $end
$upscope $end
$scope module Main_core_C $end
$var wire 32 Z" RD_Instr [31:0] $end
$var wire 32 [" ReadData [31:0] $end
$var wire 1 ! clk $end
$var wire 1 # rst_in $end
$var wire 1 \" Zero $end
$var wire 32 ]" SrcB [31:0] $end
$var wire 1 ^" ResultSrc $end
$var wire 32 _" Result [31:0] $end
$var wire 1 `" RegWrite $end
$var wire 32 a" RD2_Top [31:0] $end
$var wire 32 b" RD1_Top [31:0] $end
$var wire 32 c" PC_Top [31:0] $end
$var wire 32 d" PCPlus4 [31:0] $end
$var wire 1 e" OverFlow $end
$var wire 1 f" Negative $end
$var wire 1 0 MemWrite $end
$var wire 32 g" Imm_Ext_Top [31:0] $end
$var wire 2 h" ImmSrc [1:0] $end
$var wire 1 i" Carry $end
$var wire 1 j" ALUSrc $end
$var wire 32 k" ALUResult [31:0] $end
$var wire 3 l" ALUControl_Top [2:0] $end
$scope module ALU $end
$var wire 1 i" Carry $end
$var wire 1 e" OverFlow $end
$var wire 1 \" Zero $end
$var wire 33 m" Sum [32:0] $end
$var wire 32 n" Result [31:0] $end
$var wire 1 f" Negative $end
$var wire 1 o" Cout $end
$var wire 32 p" B [31:0] $end
$var wire 3 q" ALUControl [2:0] $end
$var wire 32 r" A [31:0] $end
$upscope $end
$scope module Control_Unit_Top $end
$var wire 7 s" Op [6:0] $end
$var wire 3 t" funct3 [2:0] $end
$var wire 7 u" funct7 [6:0] $end
$var wire 1 ^" ResultSrc $end
$var wire 1 `" RegWrite $end
$var wire 1 0 MemWrite $end
$var wire 2 v" ImmSrc [1:0] $end
$var wire 1 w" Branch $end
$var wire 1 j" ALUSrc $end
$var wire 2 x" ALUOp [1:0] $end
$var wire 3 y" ALUControl [2:0] $end
$scope module ALU_Decoder $end
$var wire 3 z" funct3 [2:0] $end
$var wire 7 {" funct7 [6:0] $end
$var wire 7 |" op [6:0] $end
$var wire 2 }" ALUOp [1:0] $end
$var wire 3 ~" ALUControl [2:0] $end
$upscope $end
$scope module Main_Decoder $end
$var wire 7 !# Op [6:0] $end
$var wire 1 ^" ResultSrc $end
$var wire 1 `" RegWrite $end
$var wire 1 0 MemWrite $end
$var wire 2 "# ImmSrc [1:0] $end
$var wire 1 w" Branch $end
$var wire 1 j" ALUSrc $end
$var wire 2 ## ALUOp [1:0] $end
$upscope $end
$upscope $end
$scope module Mux_DataMemory_to_Register $end
$var wire 32 $# a [31:0] $end
$var wire 32 %# b [31:0] $end
$var wire 1 ^" s $end
$var wire 32 &# c [31:0] $end
$upscope $end
$scope module Mux_Register_to_ALU $end
$var wire 1 j" s $end
$var wire 32 '# c [31:0] $end
$var wire 32 (# b [31:0] $end
$var wire 32 )# a [31:0] $end
$upscope $end
$scope module PC $end
$var wire 1 ! clk $end
$var wire 1 # rst_in $end
$var wire 32 *# PC_Next [31:0] $end
$var reg 32 +# PC [31:0] $end
$upscope $end
$scope module PC_Adder $end
$var wire 32 ,# a [31:0] $end
$var wire 32 -# b [31:0] $end
$var wire 32 .# c [31:0] $end
$upscope $end
$scope module Register_File $end
$var wire 5 /# A1 [4:0] $end
$var wire 5 0# A2 [4:0] $end
$var wire 5 1# A3 [4:0] $end
$var wire 32 2# WD3 [31:0] $end
$var wire 1 `" WE3 $end
$var wire 1 ! clk $end
$var wire 1 # rst_in $end
$var wire 32 3# RD2 [31:0] $end
$var wire 32 4# RD1 [31:0] $end
$var integer 32 5# i [31:0] $end
$upscope $end
$scope module Sign_Extend $end
$var wire 1 6# ImmSrc $end
$var wire 32 7# In [31:0] $end
$var wire 32 8# Imm_Ext [31:0] $end
$upscope $end
$upscope $end
$scope module Rst_Controller $end
$var wire 1 $ core_hold $end
$var wire 1 " main_rst $end
$var wire 1 # rst_in $end
$upscope $end
$scope module Voter $end
$var wire 32 9# ALUResult_A [31:0] $end
$var wire 32 :# ALUResult_B [31:0] $end
$var wire 32 ;# ALUResult_C [31:0] $end
$var wire 1 2 MemWrite_A $end
$var wire 1 1 MemWrite_B $end
$var wire 1 0 MemWrite_C $end
$var wire 32 <# PC_Top_A [31:0] $end
$var wire 32 =# PC_Top_B [31:0] $end
$var wire 32 ># PC_Top_C [31:0] $end
$var wire 32 ?# PC_Top_rollback [31:0] $end
$var wire 32 @# RD2_Top_A [31:0] $end
$var wire 32 A# RD2_Top_B [31:0] $end
$var wire 32 B# RD2_Top_C [31:0] $end
$var wire 3 C# Voter_state [2:0] $end
$var wire 1 ! clk $end
$var wire 1 # rst_in $end
$var wire 32 D# RD2_Top [31:0] $end
$var wire 32 E# PC_top_normal [31:0] $end
$var wire 32 F# PC_Top [31:0] $end
$var wire 1 3 MemWrite $end
$var wire 3 G# Comp_table_RD2 [2:0] $end
$var wire 3 H# Comp_table_PC [2:0] $end
$var wire 3 I# Comp_table_Mem [2:0] $end
$var wire 3 J# Comp_table_ALU [2:0] $end
$var wire 32 K# ALUResult [31:0] $end
$scope module PC_buffer $end
$var wire 32 L# PC_Top [31:0] $end
$var wire 32 M# PC_Top_rollback [31:0] $end
$var wire 1 ! clk $end
$upscope $end
$upscope $end
$upscope $end
$upscope $end
$enddefinitions $end
$comment Show the parameter values. $end
$dumpall
$end
#0
$dumpvars
b0 M#
bx L#
b0 K#
b111 J#
b111 I#
bx H#
b111 G#
bx F#
bx E#
b0 D#
bx C#
b0 B#
b0 A#
b0 @#
b0 ?#
bx >#
bx =#
bx <#
b0 ;#
b0 :#
b0 9#
b0 8#
b0 7#
06#
b100000 5#
b0 4#
b0 3#
b0 2#
b0 1#
b0 0#
b0 /#
bx .#
b100 -#
bx ,#
bx +#
bx *#
b0 )#
b0 (#
b0 '#
b0 &#
b0 %#
b0 $#
b0 ##
b0 "#
b0 !#
b0 ~"
b0 }"
b0 |"
b0 {"
b0 z"
b0 y"
b0 x"
0w"
b0 v"
b0 u"
b0 t"
b0 s"
b0 r"
b0 q"
b0 p"
0o"
b0 n"
b0 m"
b0 l"
b0 k"
0j"
0i"
b0 h"
b0 g"
0f"
0e"
bx d"
bx c"
b0 b"
b0 a"
0`"
b0 _"
0^"
b0 ]"
1\"
b0 ["
b0 Z"
b0 Y"
b0 X"
0W"
b100000 V"
b0 U"
b0 T"
b0 S"
b0 R"
b0 Q"
b0 P"
bx O"
b100 N"
bx M"
bx L"
bx K"
b0 J"
b0 I"
b0 H"
b0 G"
b0 F"
b0 E"
b0 D"
b0 C"
b0 B"
b0 A"
b0 @"
b0 ?"
b0 >"
b0 ="
b0 <"
b0 ;"
0:"
b0 9"
b0 8"
b0 7"
b0 6"
b0 5"
b0 4"
b0 3"
02"
b0 1"
b0 0"
b0 /"
b0 ."
0-"
0,"
b0 +"
b0 *"
0)"
0("
bx '"
bx &"
b0 %"
b0 $"
0#"
b0 ""
0!"
b0 ~
1}
b0 |
b0 {
b0 z
b0 y
0x
b100000 w
b0 v
b0 u
b0 t
b0 s
b0 r
b0 q
bx p
b100 o
bx n
bx m
bx l
b0 k
b0 j
b0 i
b0 h
b0 g
b0 f
b0 e
b0 d
b0 c
b0 b
b0 a
b0 `
b0 _
b0 ^
b0 ]
b0 \
0[
b0 Z
b0 Y
b0 X
b0 W
b0 V
b0 U
b0 T
0S
b0 R
b0 Q
b0 P
b0 O
0N
0M
b0 L
b0 K
0J
0I
bx H
bx G
b0 F
b0 E
0D
b0 C
0B
b0 A
1@
b0 ?
b0 >
bx =
bx <
b0 ;
b0 :
b0 9
b0 8
b0 7
b0 6
b0 5
b0 4
03
02
01
00
bx /
bx .
bx -
bx ,
b0 +
b0 *
b0 )
b0 (
b0 '
b0 &
bx %
x$
0#
0"
0!
$end
#50
b0 /
b0 <
b0 F#
0$
b0 E#
b0 L#
b111 %
b111 =
b111 C#
b100 d"
b100 *#
b100 .#
b0 ,
b0 c"
b0 +#
b0 ,#
b0 >#
b100 '"
b100 K"
b100 O"
b111 H#
b0 -
b0 &"
b0 L"
b0 M"
b0 =#
b100 H
b100 l
b100 p
b0 .
b0 G
b0 m
b0 n
b0 <#
1!
#100
0!
#150
b11111111111111111111111111111111 C
b11111111111111111111111111111111 h
b11111111111111111111111111111111 t
b11111111111111111111111111111111 ""
b11111111111111111111111111111111 G"
b11111111111111111111111111111111 S"
b11111111111111111111111111111111 _"
b11111111111111111111111111111111 &#
b11111111111111111111111111111111 2#
1D
1N
1#"
1-"
1`"
1j"
1B
1!"
1^"
b1 s
b11 W
b11 `
b11 c
b10 X
b10 ^
b1 R"
b11 6"
b11 ?"
b11 B"
b10 7"
b10 ="
b1 1#
b11 s"
b11 |"
b11 !#
b10 t"
b10 z"
b10000010000011 '
b10000010000011 ;
b10000010000011 >
b10000010000011 y
b10000010000011 {
b10000010000011 X"
b10000010000011 Z"
b10000010000011 7#
b11111111111111111111111111111111 &
b11111111111111111111111111111111 9
b11111111111111111111111111111111 ?
b11111111111111111111111111111111 g
b11111111111111111111111111111111 |
b11111111111111111111111111111111 F"
b11111111111111111111111111111111 ["
b11111111111111111111111111111111 %#
1#
bx ?#
bx M#
1"
1!
#200
0!
#250
b1111 C
b1111 h
b1111 t
b1111 ""
b1111 G"
b1111 S"
b1111 _"
b1111 &#
b1111 2#
b1111 &
b1111 9
b1111 ?
b1111 g
b1111 |
b1111 F"
b1111 ["
b1111 %#
b1 7
b1 :
b1 K#
0@
0}
0\"
b1 6
b1 O
b1 R
b1 f
b1 9#
b1 5
b1 ."
b1 1"
b1 E"
b1 :#
b111 J#
b1 4
b1 k"
b1 n"
b1 $#
b1 ;#
b1 Q
b1 0"
b1 m"
b11111111111111111111111111111111 +
b11111111111111111111111111111111 8
b11111111111111111111111111111111 D#
b1 A
b1 T
b1 i
b1 ~
b1 3"
b1 H"
b1 ]"
b1 p"
b1 '#
b11111111111111111111111111111111 *
b11111111111111111111111111111111 E
b11111111111111111111111111111111 k
b11111111111111111111111111111111 u
b11111111111111111111111111111111 @#
b1 K
b1 j
b1 z
b11111111111111111111111111111111 )
b11111111111111111111111111111111 $"
b11111111111111111111111111111111 J"
b11111111111111111111111111111111 T"
b11111111111111111111111111111111 A#
b1 *"
b1 I"
b1 Y"
b111 G#
b11111111111111111111111111111111 (
b11111111111111111111111111111111 a"
b11111111111111111111111111111111 )#
b11111111111111111111111111111111 3#
b11111111111111111111111111111111 B#
b1 g"
b1 (#
b1 8#
b1 r
b10 s
b1 Q"
b10 R"
b1 0#
b10 1#
b100000010000100000011 '
b100000010000100000011 ;
b100000010000100000011 >
b100000010000100000011 y
b100000010000100000011 {
b100000010000100000011 X"
b100000010000100000011 Z"
b100000010000100000011 7#
b100 /
b100 <
b100 F#
b100 E#
b100 L#
b1000 d"
b1000 *#
b1000 .#
b100 ,
b100 c"
b100 +#
b100 ,#
b100 >#
b1000 '"
b1000 K"
b1000 O"
b100 -
b100 &"
b100 L"
b100 M"
b100 =#
b1000 H
b1000 l
b1000 p
b111 H#
b100 .
b100 G
b100 m
b100 n
b100 <#
1!
#300
0!
#350
b0 &
b0 9
b0 ?
b0 g
b0 |
b0 F"
b0 ["
b0 %#
b1110 7
b1110 :
b1110 K#
b1110 6
b1110 O
b1110 R
b1110 f
b1110 9#
b1110 5
b1110 ."
b1110 1"
b1110 E"
b1110 :#
b111 J#
b1110 4
b1110 k"
b1110 n"
b1110 $#
b1110 ;#
0I
1M
0("
1,"
0e"
1i"
1S
12"
1o"
b1110 C
b1110 h
b1110 t
b1110 ""
b1110 G"
b1110 S"
b1110 _"
b1110 &#
b1110 2#
b100000000000000000000000000001110 Q
b1111 +
b1111 8
b1111 D#
0N
b1111 A
b1111 T
b1111 i
b100000000000000000000000000001110 0"
0-"
b1111 ~
b1111 3"
b1111 H"
b100000000000000000000000000001110 m"
0j"
b1111 ]"
b1111 p"
b1111 '#
b11111111111111111111111111111111 F
b11111111111111111111111111111111 V
b11111111111111111111111111111111 v
b1111 *
b1111 E
b1111 k
b1111 u
b1111 @#
0B
b10 \
b10 a
b10 e
b10 K
b10 j
b10 z
b11111111111111111111111111111111 %"
b11111111111111111111111111111111 5"
b11111111111111111111111111111111 U"
b1111 )
b1111 $"
b1111 J"
b1111 T"
b1111 A#
0!"
b10 ;"
b10 @"
b10 D"
b10 *"
b10 I"
b10 Y"
b11111111111111111111111111111111 b"
b11111111111111111111111111111111 r"
b11111111111111111111111111111111 4#
b111 G#
b1111 (
b1111 a"
b1111 )#
b1111 3#
b1111 B#
0^"
b10 x"
b10 }"
b10 ##
b10 g"
b10 (#
b10 8#
b1 q
b10 r
b11 s
b110011 W
b110011 `
b110011 c
b0 X
b0 ^
b1 P"
b10 Q"
b11 R"
b110011 6"
b110011 ?"
b110011 B"
b0 7"
b0 ="
b1 /#
b10 0#
b11 1#
b110011 s"
b110011 |"
b110011 !#
b0 t"
b0 z"
b1000001000000110110011 '
b1000001000000110110011 ;
b1000001000000110110011 >
b1000001000000110110011 y
b1000001000000110110011 {
b1000001000000110110011 X"
b1000001000000110110011 Z"
b1000001000000110110011 7#
b1000 /
b1000 <
b1000 F#
b1000 E#
b1000 L#
b1100 H
b1100 l
b1100 p
b1000 .
b1000 G
b1000 m
b1000 n
b1000 <#
b1100 '"
b1100 K"
b1100 O"
b1000 -
b1000 &"
b1000 L"
b1000 M"
b1000 =#
b1100 d"
b1100 *#
b1100 .#
b111 H#
b1000 ,
b1000 c"
b1000 +#
b1000 ,#
b1000 >#
b0 ?#
b0 M#
1!
#400
0!
#450
b10101011110011011110111110101011 &
b10101011110011011110111110101011 9
b10101011110011011110111110101011 ?
b10101011110011011110111110101011 g
b10101011110011011110111110101011 |
b10101011110011011110111110101011 F"
b10101011110011011110111110101011 ["
b10101011110011011110111110101011 %#
b10 C
b10 h
b10 t
b10 7
b10 :
b10 K#
b10 ""
b10 G"
b10 S"
b10 _"
b10 &#
b10 2#
b10 6
b10 O
b10 R
b10 f
b10 9#
b10 5
b10 ."
b10 1"
b10 E"
b10 :#
b111 J#
b10 4
b10 k"
b10 n"
b10 $#
b10 ;#
0M
0,"
0i"
0S
02"
0o"
b10 Q
b1110 +
b1110 8
b1110 D#
b10 A
b10 T
b10 i
0D
1x
1N
13
b10 0"
b10 ~
b10 3"
b10 H"
0#"
1W"
1-"
b10 m"
b10 ]"
b10 p"
b10 '#
0`"
16#
1j"
b0 F
b0 V
b0 v
b1110 *
b1110 E
b1110 k
b1110 u
b1110 @#
b1 L
b1 Z
b1 d
12
b0 \
b0 a
b0 e
b10 K
b10 j
b10 z
b0 %"
b0 5"
b0 U"
b1110 )
b1110 $"
b1110 J"
b1110 T"
b1110 A#
b1 +"
b1 9"
b1 C"
11
b0 ;"
b0 @"
b0 D"
b10 *"
b10 I"
b10 Y"
b0 b"
b0 r"
b0 4#
b111 G#
b1110 (
b1110 a"
b1110 )#
b1110 3#
b1110 B#
b1 h"
b1 v"
b1 "#
10
b0 x"
b0 }"
b0 ##
b10 g"
b10 (#
b10 8#
b0 q
b11 r
b10 s
b100011 W
b100011 `
b100011 c
b10 X
b10 ^
b0 P"
b11 Q"
b10 R"
b100011 6"
b100011 ?"
b100011 B"
b10 7"
b10 ="
b0 /#
b11 0#
b10 1#
b100011 s"
b100011 |"
b100011 !#
b10 t"
b10 z"
b1100000010000100100011 '
b1100000010000100100011 ;
b1100000010000100100011 >
b1100000010000100100011 y
b1100000010000100100011 {
b1100000010000100100011 X"
b1100000010000100100011 Z"
b1100000010000100100011 7#
b1100 /
b1100 <
b1100 F#
b1100 E#
b1100 L#
b10000 d"
b10000 *#
b10000 .#
b1100 ,
b1100 c"
b1100 +#
b1100 ,#
b1100 >#
b10000 '"
b10000 K"
b10000 O"
b1100 -
b1100 &"
b1100 L"
b1100 M"
b1100 =#
b10000 H
b10000 l
b10000 p
b111 H#
b1100 .
b1100 G
b1100 m
b1100 n
b1100 <#
1!
#500
0!
#550
xI
xJ
x@
xM
x("
x)"
x}
x,"
xe"
xf"
x\"
xi"
bx 6
bx O
bx R
bx f
bx 9#
xS
bx 5
bx ."
bx 1"
bx E"
bx :#
x2"
bx J#
bx 4
bx k"
bx n"
bx $#
bx ;#
xo"
bx 7
bx :
bx K#
x#
bx C
bx h
bx t
bx P
bx U
bx ]
bx b
bx ""
bx G"
bx S"
bx /"
bx 4"
bx <"
bx A"
x$
bx _"
bx &#
bx 2#
bx l"
bx q"
bx y"
bx ~"
bx Q
bx +
bx 8
bx D#
xD
xx
xN
x3
bx A
bx T
bx i
bx 0"
x#"
xW"
x-"
bx ~
bx 3"
bx H"
bx m"
bx %
bx =
bx C#
x`"
x6#
xj"
bx I#
bx ]"
bx p"
bx '#
bx F
bx V
bx v
bx *
bx E
bx k
bx u
bx @#
bx L
bx Z
bx d
x2
xB
x[
bx \
bx a
bx e
bx K
bx j
bx z
bx %"
bx 5"
bx U"
bx )
bx $"
bx J"
bx T"
bx A#
bx +"
bx 9"
bx C"
x1
x!"
x:"
bx ;"
bx @"
bx D"
bx *"
bx I"
bx Y"
bx b"
bx r"
bx 4#
bx G#
bx (
bx a"
bx )#
bx 3#
bx B#
bx h"
bx v"
bx "#
x0
x^"
xw"
bx x"
bx }"
bx ##
bx g"
bx (#
bx 8#
bx q
bx r
bx s
bx W
bx `
bx c
bx X
bx ^
bx Y
bx _
bx P"
bx Q"
bx R"
bx 6"
bx ?"
bx B"
bx 7"
bx ="
bx 8"
bx >"
bx /#
bx 0#
bx 1#
bx s"
bx |"
bx !#
bx t"
bx z"
bx u"
bx {"
bx '
bx ;
bx >
bx y
bx {
bx X"
bx Z"
bx 7#
b0x0x00 /
b0x0x00 <
b0x0x00 F#
b0x0000 E#
b0x0000 L#
bx &
bx 9
bx ?
bx g
bx |
bx F"
bx ["
bx %#
b10100 H
b10100 l
b10100 p
b10000 .
b10000 G
b10000 m
b10000 n
b10000 <#
b10100 '"
b10100 K"
b10100 O"
b10000 -
b10000 &"
b10000 L"
b10000 M"
b10000 =#
b10100 d"
b10100 *#
b10100 .#
b111 H#
b10000 ,
b10000 c"
b10000 +#
b10000 ,#
b10000 >#
b100 ?#
b100 M#
1!
#600
0!
#650
b0xxx00 /
b0xxx00 <
b0xxx00 F#
b0x0x00 E#
b0x0x00 L#
b1000 ?#
b1000 M#
b11000 d"
b11000 *#
b11000 .#
b10100 ,
b10100 c"
b10100 +#
b10100 ,#
b10100 >#
b11000 '"
b11000 K"
b11000 O"
b10100 -
b10100 &"
b10100 L"
b10100 M"
b10100 =#
b11000 H
b11000 l
b11000 p
b111 H#
b10100 .
b10100 G
b10100 m
b10100 n
b10100 <#
1!
#700
0!
#750
b0xx000 E#
b0xx000 L#
b11100 H
b11100 l
b11100 p
b11000 .
b11000 G
b11000 m
b11000 n
b11000 <#
b11100 '"
b11100 K"
b11100 O"
b11000 -
b11000 &"
b11000 L"
b11000 M"
b11000 =#
b11100 d"
b11100 *#
b11100 .#
b111 H#
b11000 ,
b11000 c"
b11000 +#
b11000 ,#
b11000 >#
b1100 ?#
b1100 M#
1!
