RISCV_TMR/output/dumpfile.vcd
$date
	Tue May 09 03:32:55 2023
$end
$version
	Icarus Verilog
$end
$timescale
	1s
$end
$scope module Top_module_tb $end
$var reg 1 ! clk $end
$var reg 1 " rst $end
$scope module Top_module $end
$var wire 1 ! clk $end
$var wire 1 " rst $end
$var wire 32 # enc_RD_Instr [31:0] $end
$var wire 2 $ Voter_state [1:0] $end
$var wire 32 % ReadData [31:0] $end
$var wire 32 & RD_Instr [31:0] $end
$var wire 32 ' RD2_Top_C [31:0] $end
$var wire 32 ( RD2_Top_B [31:0] $end
$var wire 32 ) RD2_Top_A [31:0] $end
$var wire 32 * RD2_Top [31:0] $end
$var wire 32 + PC_Top_C [31:0] $end
$var wire 32 , PC_Top_B [31:0] $end
$var wire 32 - PC_Top_A [31:0] $end
$var wire 32 . PC_Top [31:0] $end
$var wire 1 / MemWrite_C $end
$var wire 1 0 MemWrite_B $end
$var wire 1 1 MemWrite_A $end
$var wire 1 2 MemWrite $end
$var wire 32 3 ALUResult_C [31:0] $end
$var wire 32 4 ALUResult_B [31:0] $end
$var wire 32 5 ALUResult_A [31:0] $end
$var wire 32 6 ALUResult [31:0] $end
$scope module Data_Memory $end
$var wire 1 ! clk $end
$var wire 1 " rst $end
$var wire 1 2 WE $end
$var wire 32 7 WD [31:0] $end
$var wire 32 8 RD [31:0] $end
$var wire 32 9 A [31:0] $end
$upscope $end
$scope module Instruction_Memory $end
$var wire 1 " rst $end
$var wire 32 : RD [31:0] $end
$var wire 32 ; A [31:0] $end
$upscope $end
$scope module Main_core_A $end
$var wire 32 < ReadData [31:0] $end
$var wire 1 ! clk $end
$var wire 1 " rst $end
$var wire 1 = Zero $end
$var wire 32 > SrcB [31:0] $end
$var wire 1 ? ResultSrc $end
$var wire 32 @ Result [31:0] $end
$var wire 1 A RegWrite $end
$var wire 32 B RD_Instr [31:0] $end
$var wire 32 C RD2_Top [31:0] $end
$var wire 32 D RD1_Top [31:0] $end
$var wire 32 E PC_Top [31:0] $end
$var wire 32 F PCPlus4 [31:0] $end
$var wire 1 G OverFlow $end
$var wire 1 H Negative $end
$var wire 1 1 MemWrite $end
$var wire 32 I Imm_Ext_Top [31:0] $end
$var wire 2 J ImmSrc [1:0] $end
$var wire 1 K Carry $end
$var wire 1 L ALUSrc $end
$var wire 32 M ALUResult [31:0] $end
$var wire 3 N ALUControl_Top [2:0] $end
$scope module ALU $end
$var wire 1 K Carry $end
$var wire 1 G OverFlow $end
$var wire 1 = Zero $end
$var wire 33 O Sum [32:0] $end
$var wire 32 P Result [31:0] $end
$var wire 1 H Negative $end
$var wire 1 Q Cout $end
$var wire 32 R B [31:0] $end
$var wire 3 S ALUControl [2:0] $end
$var wire 32 T A [31:0] $end
$upscope $end
$scope module Control_Unit_Top $end
$var wire 7 U Op [6:0] $end
$var wire 3 V funct3 [2:0] $end
$var wire 7 W funct7 [6:0] $end
$var wire 1 ? ResultSrc $end
$var wire 1 A RegWrite $end
$var wire 1 1 MemWrite $end
$var wire 2 X ImmSrc [1:0] $end
$var wire 1 Y Branch $end
$var wire 1 L ALUSrc $end
$var wire 2 Z ALUOp [1:0] $end
$var wire 3 [ ALUControl [2:0] $end
$scope module ALU_Decoder $end
$var wire 3 \ funct3 [2:0] $end
$var wire 7 ] funct7 [6:0] $end
$var wire 7 ^ op [6:0] $end
$var wire 2 _ ALUOp [1:0] $end
$var wire 3 ` ALUControl [2:0] $end
$upscope $end
$scope module Main_Decoder $end
$var wire 7 a Op [6:0] $end
$var wire 1 ? ResultSrc $end
$var wire 1 A RegWrite $end
$var wire 1 1 MemWrite $end
$var wire 2 b ImmSrc [1:0] $end
$var wire 1 Y Branch $end
$var wire 1 L ALUSrc $end
$var wire 2 c ALUOp [1:0] $end
$upscope $end
$upscope $end
$scope module Mux_DataMemory_to_Register $end
$var wire 32 d a [31:0] $end
$var wire 32 e b [31:0] $end
$var wire 1 ? s $end
$var wire 32 f c [31:0] $end
$upscope $end
$scope module Mux_Register_to_ALU $end
$var wire 1 L s $end
$var wire 32 g c [31:0] $end
$var wire 32 h b [31:0] $end
$var wire 32 i a [31:0] $end
$upscope $end
$scope module PC $end
$var wire 1 ! clk $end
$var wire 1 " rst $end
$var wire 32 j PC_Next [31:0] $end
$var reg 32 k PC [31:0] $end
$upscope $end
$scope module PC_Adder $end
$var wire 32 l a [31:0] $end
$var wire 32 m b [31:0] $end
$var wire 32 n c [31:0] $end
$upscope $end
$scope module Register_File $end
$var wire 5 o A1 [4:0] $end
$var wire 5 p A2 [4:0] $end
$var wire 5 q A3 [4:0] $end
$var wire 32 r WD3 [31:0] $end
$var wire 1 A WE3 $end
$var wire 1 ! clk $end
$var wire 1 " rst $end
$var wire 32 s RD2 [31:0] $end
$var wire 32 t RD1 [31:0] $end
$var integer 32 u i [31:0] $end
$upscope $end
$scope module Sign_Extend $end
$var wire 1 v ImmSrc $end
$var wire 32 w In [31:0] $end
$var wire 32 x Imm_Ext [31:0] $end
$upscope $end
$upscope $end
$scope module Main_core_B $end
$var wire 32 y ReadData [31:0] $end
$var wire 1 ! clk $end
$var wire 1 " rst $end
$var wire 1 z Zero $end
$var wire 32 { SrcB [31:0] $end
$var wire 1 | ResultSrc $end
$var wire 32 } Result [31:0] $end
$var wire 1 ~ RegWrite $end
$var wire 32 !" RD_Instr [31:0] $end
$var wire 32 "" RD2_Top [31:0] $end
$var wire 32 #" RD1_Top [31:0] $end
$var wire 32 $" PC_Top [31:0] $end
$var wire 32 %" PCPlus4 [31:0] $end
$var wire 1 &" OverFlow $end
$var wire 1 '" Negative $end
$var wire 1 0 MemWrite $end
$var wire 32 (" Imm_Ext_Top [31:0] $end
$var wire 2 )" ImmSrc [1:0] $end
$var wire 1 *" Carry $end
$var wire 1 +" ALUSrc $end
$var wire 32 ," ALUResult [31:0] $end
$var wire 3 -" ALUControl_Top [2:0] $end
$scope module ALU $end
$var wire 1 *" Carry $end
$var wire 1 &" OverFlow $end
$var wire 1 z Zero $end
$var wire 33 ." Sum [32:0] $end
$var wire 32 /" Result [31:0] $end
$var wire 1 '" Negative $end
$var wire 1 0" Cout $end
$var wire 32 1" B [31:0] $end
$var wire 3 2" ALUControl [2:0] $end
$var wire 32 3" A [31:0] $end
$upscope $end
$scope module Control_Unit_Top $end
$var wire 7 4" Op [6:0] $end
$var wire 3 5" funct3 [2:0] $end
$var wire 7 6" funct7 [6:0] $end
$var wire 1 | ResultSrc $end
$var wire 1 ~ RegWrite $end
$var wire 1 0 MemWrite $end
$var wire 2 7" ImmSrc [1:0] $end
$var wire 1 8" Branch $end
$var wire 1 +" ALUSrc $end
$var wire 2 9" ALUOp [1:0] $end
$var wire 3 :" ALUControl [2:0] $end
$scope module ALU_Decoder $end
$var wire 3 ;" funct3 [2:0] $end
$var wire 7 <" funct7 [6:0] $end
$var wire 7 =" op [6:0] $end
$var wire 2 >" ALUOp [1:0] $end
$var wire 3 ?" ALUControl [2:0] $end
$upscope $end
$scope module Main_Decoder $end
$var wire 7 @" Op [6:0] $end
$var wire 1 | ResultSrc $end
$var wire 1 ~ RegWrite $end
$var wire 1 0 MemWrite $end
$var wire 2 A" ImmSrc [1:0] $end
$var wire 1 8" Branch $end
$var wire 1 +" ALUSrc $end
$var wire 2 B" ALUOp [1:0] $end
$upscope $end
$upscope $end
$scope module Mux_DataMemory_to_Register $end
$var wire 32 C" a [31:0] $end
$var wire 32 D" b [31:0] $end
$var wire 1 | s $end
$var wire 32 E" c [31:0] $end
$upscope $end
$scope module Mux_Register_to_ALU $end
$var wire 1 +" s $end
$var wire 32 F" c [31:0] $end
$var wire 32 G" b [31:0] $end
$var wire 32 H" a [31:0] $end
$upscope $end
$scope module PC $end
$var wire 1 ! clk $end
$var wire 1 " rst $end
$var wire 32 I" PC_Next [31:0] $end
$var reg 32 J" PC [31:0] $end
$upscope $end
$scope module PC_Adder $end
$var wire 32 K" a [31:0] $end
$var wire 32 L" b [31:0] $end
$var wire 32 M" c [31:0] $end
$upscope $end
$scope module Register_File $end
$var wire 5 N" A1 [4:0] $end
$var wire 5 O" A2 [4:0] $end
$var wire 5 P" A3 [4:0] $end
$var wire 32 Q" WD3 [31:0] $end
$var wire 1 ~ WE3 $end
$var wire 1 ! clk $end
$var wire 1 " rst $end
$var wire 32 R" RD2 [31:0] $end
$var wire 32 S" RD1 [31:0] $end
$var integer 32 T" i [31:0] $end
$upscope $end
$scope module Sign_Extend $end
$var wire 1 U" ImmSrc $end
$var wire 32 V" In [31:0] $end
$var wire 32 W" Imm_Ext [31:0] $end
$upscope $end
$upscope $end
$scope module Main_core_C $end
$var wire 32 X" ReadData [31:0] $end
$var wire 1 ! clk $end
$var wire 1 " rst $end
$var wire 1 Y" Zero $end
$var wire 32 Z" SrcB [31:0] $end
$var wire 1 [" ResultSrc $end
$var wire 32 \" Result [31:0] $end
$var wire 1 ]" RegWrite $end
$var wire 32 ^" RD_Instr [31:0] $end
$var wire 32 _" RD2_Top [31:0] $end
$var wire 32 `" RD1_Top [31:0] $end
$var wire 32 a" PC_Top [31:0] $end
$var wire 32 b" PCPlus4 [31:0] $end
$var wire 1 c" OverFlow $end
$var wire 1 d" Negative $end
$var wire 1 / MemWrite $end
$var wire 32 e" Imm_Ext_Top [31:0] $end
$var wire 2 f" ImmSrc [1:0] $end
$var wire 1 g" Carry $end
$var wire 1 h" ALUSrc $end
$var wire 32 i" ALUResult [31:0] $end
$var wire 3 j" ALUControl_Top [2:0] $end
$scope module ALU $end
$var wire 1 g" Carry $end
$var wire 1 c" OverFlow $end
$var wire 1 Y" Zero $end
$var wire 33 k" Sum [32:0] $end
$var wire 32 l" Result [31:0] $end
$var wire 1 d" Negative $end
$var wire 1 m" Cout $end
$var wire 32 n" B [31:0] $end
$var wire 3 o" ALUControl [2:0] $end
$var wire 32 p" A [31:0] $end
$upscope $end
$scope module Control_Unit_Top $end
$var wire 7 q" Op [6:0] $end
$var wire 3 r" funct3 [2:0] $end
$var wire 7 s" funct7 [6:0] $end
$var wire 1 [" ResultSrc $end
$var wire 1 ]" RegWrite $end
$var wire 1 / MemWrite $end
$var wire 2 t" ImmSrc [1:0] $end
$var wire 1 u" Branch $end
$var wire 1 h" ALUSrc $end
$var wire 2 v" ALUOp [1:0] $end
$var wire 3 w" ALUControl [2:0] $end
$scope module ALU_Decoder $end
$var wire 3 x" funct3 [2:0] $end
$var wire 7 y" funct7 [6:0] $end
$var wire 7 z" op [6:0] $end
$var wire 2 {" ALUOp [1:0] $end
$var wire 3 |" ALUControl [2:0] $end
$upscope $end
$scope module Main_Decoder $end
$var wire 7 }" Op [6:0] $end
$var wire 1 [" ResultSrc $end
$var wire 1 ]" RegWrite $end
$var wire 1 / MemWrite $end
$var wire 2 ~" ImmSrc [1:0] $end
$var wire 1 u" Branch $end
$var wire 1 h" ALUSrc $end
$var wire 2 !# ALUOp [1:0] $end
$upscope $end
$upscope $end
$scope module Mux_DataMemory_to_Register $end
$var wire 32 "# a [31:0] $end
$var wire 32 ## b [31:0] $end
$var wire 1 [" s $end
$var wire 32 $# c [31:0] $end
$upscope $end
$scope module Mux_Register_to_ALU $end
$var wire 1 h" s $end
$var wire 32 %# c [31:0] $end
$var wire 32 &# b [31:0] $end
$var wire 32 '# a [31:0] $end
$upscope $end
$scope module PC $end
$var wire 1 ! clk $end
$var wire 1 " rst $end
$var wire 32 (# PC_Next [31:0] $end
$var reg 32 )# PC [31:0] $end
$upscope $end
$scope module PC_Adder $end
$var wire 32 *# a [31:0] $end
$var wire 32 +# b [31:0] $end
$var wire 32 ,# c [31:0] $end
$upscope $end
$scope module Register_File $end
$var wire 5 -# A1 [4:0] $end
$var wire 5 .# A2 [4:0] $end
$var wire 5 /# A3 [4:0] $end
$var wire 32 0# WD3 [31:0] $end
$var wire 1 ]" WE3 $end
$var wire 1 ! clk $end
$var wire 1 " rst $end
$var wire 32 1# RD2 [31:0] $end
$var wire 32 2# RD1 [31:0] $end
$var integer 32 3# i [31:0] $end
$upscope $end
$scope module Sign_Extend $end
$var wire 1 4# ImmSrc $end
$var wire 32 5# In [31:0] $end
$var wire 32 6# Imm_Ext [31:0] $end
$upscope $end
$upscope $end
$scope module Voter $end
$var wire 32 7# ALUResult_A [31:0] $end
$var wire 32 8# ALUResult_B [31:0] $end
$var wire 32 9# ALUResult_C [31:0] $end
$var wire 1 1 MemWrite_A $end
$var wire 1 0 MemWrite_B $end
$var wire 1 / MemWrite_C $end
$var wire 32 :# PC_Top_A [31:0] $end
$var wire 32 ;# PC_Top_B [31:0] $end
$var wire 32 <# PC_Top_C [31:0] $end
$var wire 32 =# RD2_Top_A [31:0] $end
$var wire 32 ># RD2_Top_B [31:0] $end
$var wire 32 ?# RD2_Top_C [31:0] $end
$var wire 1 " rst $end
$var wire 3 @# Voter_state [2:0] $end
$var wire 32 A# RD2_Top [31:0] $end
$var wire 32 B# PC_Top [31:0] $end
$var wire 1 2 MemWrite $end
$var wire 32 C# ALUResult [31:0] $end
$upscope $end
$scope module decode_instr $end
$var wire 38 D# rcvd_data [37:0] $end
$var reg 32 E# dec_data [31:0] $end
$var integer 32 F# i [31:0] $end
$var integer 32 G# mptr [31:0] $end
$var integer 32 H# pptr [31:0] $end
$upscope $end
$upscope $end
$upscope $end
$enddefinitions $end
$comment Show the parameter values. $end
$dumpall
$end
#0
$dumpvars
b110 H#
b100000 G#
b100110 F#
b0 E#
b0 D#
b0 C#
bx B#
b0 A#
b0x @#
b0 ?#
b0 >#
b0 =#
bx <#
bx ;#
bx :#
b0 9#
b0 8#
b0 7#
b0 6#
b0 5#
04#
b100000 3#
b0 2#
b0 1#
b0 0#
b0 /#
b0 .#
b0 -#
bx ,#
b100 +#
bx *#
bx )#
bx (#
b0 '#
b0 &#
b0 %#
b0 $#
b0 ##
b0 "#
b0 !#
b0 ~"
b0 }"
b0 |"
b0 {"
b0 z"
b0 y"
b0 x"
b0 w"
b0 v"
0u"
b0 t"
b0 s"
b0 r"
b0 q"
b0 p"
b0 o"
b0 n"
0m"
b0 l"
b0 k"
b0 j"
b0 i"
0h"
0g"
b0 f"
b0 e"
0d"
0c"
bx b"
bx a"
b0 `"
b0 _"
b0 ^"
0]"
b0 \"
0["
b0 Z"
1Y"
b0 X"
b0 W"
b0 V"
0U"
b100000 T"
b0 S"
b0 R"
b0 Q"
b0 P"
b0 O"
b0 N"
bx M"
b100 L"
bx K"
bx J"
bx I"
b0 H"
b0 G"
b0 F"
b0 E"
b0 D"
b0 C"
b0 B"
b0 A"
b0 @"
b0 ?"
b0 >"
b0 ="
b0 <"
b0 ;"
b0 :"
b0 9"
08"
b0 7"
b0 6"
b0 5"
b0 4"
b0 3"
b0 2"
b0 1"
00"
b0 /"
b0 ."
b0 -"
b0 ,"
0+"
0*"
b0 )"
b0 ("
0'"
0&"
bx %"
bx $"
b0 #"
b0 ""
b0 !"
0~
b0 }
0|
b0 {
1z
b0 y
b0 x
b0 w
0v
b100000 u
b0 t
b0 s
b0 r
b0 q
b0 p
b0 o
bx n
b100 m
bx l
bx k
bx j
b0 i
b0 h
b0 g
b0 f
b0 e
b0 d
b0 c
b0 b
b0 a
b0 `
b0 _
b0 ^
b0 ]
b0 \
b0 [
b0 Z
0Y
b0 X
b0 W
b0 V
b0 U
b0 T
b0 S
b0 R
0Q
b0 P
b0 O
b0 N
b0 M
0L
0K
b0 J
b0 I
0H
0G
bx F
bx E
b0 D
b0 C
b0 B
0A
b0 @
0?
b0 >
1=
b0 <
bx ;
b0 :
b0 9
b0 8
b0 7
b0 6
b0 5
b0 4
b0 3
02
01
00
0/
bx .
bx -
bx ,
bx +
b0 *
b0 )
b0 (
b0 '
b0 &
b0 %
b0x $
b0 #
0"
0!
$end
#50
b1 $
b1 @#
b0 .
b0 ;
b0 B#
b100 b"
b100 (#
b100 ,#
b0 +
b0 a"
b0 )#
b0 *#
b0 <#
b100 %"
b100 I"
b100 M"
b0 ,
b0 $"
b0 J"
b0 K"
b0 ;#
b100 F
b100 j
b100 n
b0 -
b0 E
b0 k
b0 l
b0 :#
1!
#100
0!
#150
b100 \"
b100 $#
b100 0#
b100 }
b100 E"
b100 Q"
b100 @
b100 f
b100 r
1]"
1h"
1~
1+"
1A
1L
1["
1|
1?
b10 r"
b10 x"
b10 5"
b10 ;"
b10 V
b10 \
b1 /#
b1 P"
b1 q
b11 q"
b11 z"
b11 }"
b11 4"
b11 ="
b11 @"
b11 U
b11 ^
b11 a
b10000010000011 &
b10000010000011 B
b10000010000011 w
b10000010000011 !"
b10000010000011 V"
b10000010000011 ^"
b10000010000011 5#
b10000010000011 E#
b100110 F#
b110 H#
b100000 G#
b1001000100010010101 D#
b1001000100010010101 #
b1001000100010010101 :
b100 %
b100 8
b100 <
b100 e
b100 y
b100 D"
b100 X"
b100 ##
1"
1!
#200
0!
#250
b101 @
b101 f
b101 r
b101 }
b101 E"
b101 Q"
b101 \"
b101 $#
b101 0#
b101 %
b101 8
b101 <
b101 e
b101 y
b101 D"
b101 X"
b101 ##
0Y"
0z
b1 6
b1 9
b1 C#
0=
b1 3
b1 i"
b1 l"
b1 "#
b1 9#
b1 4
b1 ,"
b1 /"
b1 C"
b1 8#
b1 5
b1 M
b1 P
b1 d
b1 7#
b1 k"
b1 ."
b1 O
b1 Z"
b1 n"
b1 %#
b1 {
b1 1"
b1 F"
b1 >
b1 R
b1 g
b100 *
b100 7
b100 A#
b1 e"
b1 &#
b1 6#
b100 '
b100 _"
b100 '#
b100 1#
b100 ?#
b1 ("
b1 G"
b1 W"
b100 (
b100 ""
b100 H"
b100 R"
b100 >#
b1 I
b1 h
b1 x
b100 )
b100 C
b100 i
b100 s
b100 =#
b1 .#
b1 O"
b1 p
b10 /#
b10 P"
b10 q
b100000010000100000011 &
b100000010000100000011 B
b100000010000100000011 w
b100000010000100000011 !"
b100000010000100000011 V"
b100000010000100000011 ^"
b100000010000100000011 5#
b100000010000100000011 E#
b100110 F#
b110 H#
b100000 G#
b10000001000001000000010110 D#
b10000001000001000000010110 #
b10000001000001000000010110 :
b100 .
b100 ;
b100 B#
b1000 b"
b1000 (#
b1000 ,#
b100 +
b100 a"
b100 )#
b100 *#
b100 <#
b1000 %"
b1000 I"
b1000 M"
b100 ,
b100 $"
b100 J"
b100 K"
b100 ;#
b1000 F
b1000 j
b1000 n
b100 -
b100 E
b100 k
b100 l
b100 :#
1!
#300
0!
#350
b0 %
b0 8
b0 <
b0 e
b0 y
b0 D"
b0 X"
b0 ##
b1001 6
b1001 9
b1001 C#
b1001 3
b1001 i"
b1001 l"
b1001 "#
b1001 9#
b1001 4
b1001 ,"
b1001 /"
b1001 C"
b1001 8#
b1001 5
b1001 M
b1001 P
b1001 d
b1001 7#
b1001 \"
b1001 $#
b1001 0#
b1001 }
b1001 E"
b1001 Q"
b1001 @
b1001 f
b1001 r
b101 Z"
b101 n"
b101 %#
b101 {
b101 1"
b101 F"
b101 >
b101 R
b101 g
b101 *
b101 7
b101 A#
b1001 k"
b1001 ."
b1001 O
0h"
0+"
0L
b10 e"
b10 &#
b10 6#
b101 '
b101 _"
b101 '#
b101 1#
b101 ?#
b10 ("
b10 G"
b10 W"
b101 (
b101 ""
b101 H"
b101 R"
b101 >#
b10 I
b10 h
b10 x
b101 )
b101 C
b101 i
b101 s
b101 =#
b100 `"
b100 p"
b100 2#
b100 #"
b100 3"
b100 S"
b100 D
b100 T
b100 t
0["
b10 v"
b10 {"
b10 !#
0|
b10 9"
b10 >"
b10 B"
0?
b10 Z
b10 _
b10 c
b10 .#
b10 O"
b10 p
b1 -#
b1 N"
b1 o
b0 r"
b0 x"
b0 5"
b0 ;"
b0 V
b0 \
b11 /#
b11 P"
b11 q
b110011 q"
b110011 z"
b110011 }"
b110011 4"
b110011 ="
b110011 @"
b110011 U
b110011 ^
b110011 a
b1000001000000110110011 &
b1000001000000110110011 B
b1000001000000110110011 w
b1000001000000110110011 !"
b1000001000000110110011 V"
b1000001000000110110011 ^"
b1000001000000110110011 5#
b1000001000000110110011 E#
b100110 F#
b110 H#
b100000 G#
b100000100000001101110010110 D#
b100000100000001101110010110 #
b100000100000001101110010110 :
b1000 .
b1000 ;
b1000 B#
b1100 F
b1100 j
b1100 n
b1000 -
b1000 E
b1000 k
b1000 l
b1000 :#
b1100 %"
b1100 I"
b1100 M"
b1000 ,
b1000 $"
b1000 J"
b1000 K"
b1000 ;#
b1100 b"
b1100 (#
b1100 ,#
b1000 +
b1000 a"
b1000 )#
b1000 *#
b1000 <#
1!
#400
0!
#450
b10 %
b10 8
b10 <
b10 e
b10 y
b10 D"
b10 X"
b10 ##
b10 \"
b10 $#
b10 0#
b10 }
b10 E"
b10 Q"
b10 @
b10 f
b10 r
b10 6
b10 9
b10 C#
b10 3
b10 i"
b10 l"
b10 "#
b10 9#
b10 4
b10 ,"
b10 /"
b10 C"
b10 8#
b10 5
b10 M
b10 P
b10 d
b10 7#
b10 Z"
b10 n"
b10 %#
b10 {
b10 1"
b10 F"
b1001 *
b1001 7
b1001 A#
b10 >
b10 R
b10 g
b10 k"
b10 ."
b10 O
0]"
14#
1h"
0~
1U"
1+"
0A
1v
1L
12
b10 e"
b10 &#
b10 6#
b1001 '
b1001 _"
b1001 '#
b1001 1#
b1001 ?#
b10 ("
b10 G"
b10 W"
b1001 (
b1001 ""
b1001 H"
b1001 R"
b1001 >#
b10 I
b10 h
b10 x
b1001 )
b1001 C
b1001 i
b1001 s
b1001 =#
b0 `"
b0 p"
b0 2#
b0 #"
b0 3"
b0 S"
b0 D
b0 T
b0 t
b1 f"
b1 t"
b1 ~"
1/
b0 v"
b0 {"
b0 !#
b1 )"
b1 7"
b1 A"
10
b0 9"
b0 >"
b0 B"
b1 J
b1 X
b1 b
11
b0 Z
b0 _
b0 c
b11 .#
b11 O"
b11 p
b0 -#
b0 N"
b0 o
b10 r"
b10 x"
b10 5"
b10 ;"
b10 V
b10 \
b10 /#
b10 P"
b10 q
b100011 q"
b100011 z"
b100011 }"
b100011 4"
b100011 ="
b100011 @"
b100011 U
b100011 ^
b100011 a
b1100000010000100100011 &
b1100000010000100100011 B
b1100000010000100100011 w
b1100000010000100100011 !"
b1100000010000100100011 V"
b1100000010000100100011 ^"
b1100000010000100100011 5#
b1100000010000100100011 E#
b100110 F#
b110 H#
b100000 G#
b110000001001001001000010111 D#
b110000001001001001000010111 #
b110000001001001001000010111 :
b1100 .
b1100 ;
b1100 B#
b10000 b"
b10000 (#
b10000 ,#
b1100 +
b1100 a"
b1100 )#
b1100 *#
b1100 <#
b10000 %"
b10000 I"
b10000 M"
b1100 ,
b1100 $"
b1100 J"
b1100 K"
b1100 ;#
b10000 F
b10000 j
b10000 n
b1100 -
b1100 E
b1100 k
b1100 l
b1100 :#
1!
#500
0!
#550
xc"
xd"
xY"
xg"
x&"
x'"
xz
x*"
xG
xH
x=
xK
bx 6
bx 9
bx C#
bx 3
bx i"
bx l"
bx "#
bx 9#
xm"
bx 4
bx ,"
bx /"
bx C"
bx 8#
x0"
bx 5
bx M
bx P
bx d
bx 7#
xQ
b0x $
bx \"
bx $#
bx 0#
bx j"
bx o"
bx w"
bx |"
b0x @#
bx }
bx E"
bx Q"
bx -"
bx 2"
bx :"
bx ?"
bx @
bx f
bx r
bx N
bx S
bx [
bx `
bx *
bx 7
bx A#
bx k"
bx ."
bx O
bx Z"
bx n"
bx %#
bx {
bx 1"
bx F"
bx >
bx R
bx g
x]"
x4#
xh"
x~
xU"
x+"
xA
xv
xL
x2
bx '
bx _"
bx '#
bx 1#
bx ?#
bx (
bx ""
bx H"
bx R"
bx >#
bx )
bx C
bx i
bx s
bx =#
bx `"
bx p"
bx 2#
bx #"
bx 3"
bx S"
bx D
bx T
bx t
b0xxxxxx e"
b0xxxxxx &#
b0xxxxxx 6#
b0xxxxxx ("
b0xxxxxx G"
b0xxxxxx W"
b0xxxxxx I
b0xxxxxx h
b0xxxxxx x
bx f"
bx t"
bx ~"
x/
x["
xu"
bx v"
bx {"
bx !#
bx )"
bx 7"
bx A"
x0
x|
x8"
bx 9"
bx >"
bx B"
bx J
bx X
bx b
x1
x?
xY
bx Z
bx _
bx c
b0x s"
b0x y"
b0x 6"
b0x <"
b0x W
b0x ]
bx .#
bx O"
bx p
bx -#
bx N"
bx o
bx r"
bx x"
bx 5"
bx ;"
bx V
bx \
bx /#
bx P"
bx q
bx q"
bx z"
bx }"
bx 4"
bx ="
bx @"
bx U
bx ^
bx a
b0xxxxxxxxxxxxxxxxxxxxxxxxxx &
b0xxxxxxxxxxxxxxxxxxxxxxxxxx B
b0xxxxxxxxxxxxxxxxxxxxxxxxxx w
b0xxxxxxxxxxxxxxxxxxxxxxxxxx !"
b0xxxxxxxxxxxxxxxxxxxxxxxxxx V"
b0xxxxxxxxxxxxxxxxxxxxxxxxxx ^"
b0xxxxxxxxxxxxxxxxxxxxxxxxxx 5#
b0xxxxxxxxxxxxxxxxxxxxxxxxxx E#
b100110 F#
b110 H#
b100000 G#
b0xxxxxxxxxxxxxxxxxxxxxxxxxxxxxxxx D#
bx #
bx :
b10000 .
b10000 ;
b10000 B#
bx %
bx 8
bx <
bx e
bx y
bx D"
bx X"
bx ##
b10100 F
b10100 j
b10100 n
b10000 -
b10000 E
b10000 k
b10000 l
b10000 :#
b10100 %"
b10100 I"
b10100 M"
b10000 ,
b10000 $"
b10000 J"
b10000 K"
b10000 ;#
b10100 b"
b10100 (#
b10100 ,#
b10000 +
b10000 a"
b10000 )#
b10000 *#
b10000 <#
1!
#600
0!
#650
b10100 .
b10100 ;
b10100 B#
b11000 b"
b11000 (#
b11000 ,#
b10100 +
b10100 a"
b10100 )#
b10100 *#
b10100 <#
b11000 %"
b11000 I"
b11000 M"
b10100 ,
b10100 $"
b10100 J"
b10100 K"
b10100 ;#
b11000 F
b11000 j
b11000 n
b10100 -
b10100 E
b10100 k
b10100 l
b10100 :#
1!
#700
0!
#750
b11000 .
b11000 ;
b11000 B#
b11100 F
b11100 j
b11100 n
b11000 -
b11000 E
b11000 k
b11000 l
b11000 :#
b11100 %"
b11100 I"
b11100 M"
b11000 ,
b11000 $"
b11000 J"
b11000 K"
b11000 ;#
b11100 b"
b11100 (#
b11100 ,#
b11000 +
b11000 a"
b11000 )#
b11000 *#
b11000 <#
1!
